spawns	name	room	loc_x	loc_y	loc_z	yaw	script	mood	animation_mood	respawn_time	spawn_objvar	special_room	special_room_script	room_objvar	room_objvar_name	room_objvar_value
s	s	s	f	f	f	f	s	s	s	i	s	s	s	s	s	s
c_syren_4_tierce		room6	0.3	4.7	3.6	-90	conversation.c_story1_4_lando			60	int:ai.defaultCalmBehavior=1					
noble		room6	-4.5	4.7	3.3	90	npe.make_invulnerable			60	int:ai.defaultCalmBehavior=1					
