id	Description	Object Template	Money	Once Per Account	Once Per Account Feature Id	Once Per Character	Can Trade In	Comment
s	s	s	i	b	b[0]	b	b[0]	c
dataterminal1	veteran_new:dataterminal1	object/tangible/veteran_reward/data_terminal_s1.iff	0	0		0		Once Per Account Feature Id specifies that the reward item is granted by a feature id but that feature id
dataterminal2	veteran_new:dataterminal2	object/tangible/veteran_reward/data_terminal_s2.iff	0	0		0		will only be set/granted once and it will have a value of 1 when set/granted which means in effect that an
dataterminal3	veteran_new:dataterminal3	object/tangible/veteran_reward/data_terminal_s3.iff	0	0		0		account will only ever be granted 1 such reward item
dataterminal4	veteran_new:dataterminal4	object/tangible/veteran_reward/data_terminal_s4.iff	0	0		0		
techconsole_a	veteran_new:techconsole_a	object/tangible/veteran_reward/frn_tech_console_sectional_a.iff	0	0		0		setting the Once Per Account Feature Id value to 1 will cause an in-game popup message letting the
techconsole_b	veteran_new:techconsole_b	object/tangible/veteran_reward/frn_tech_console_sectional_b.iff	0	0		0		player know that the reward item can only be claimed by 1 character on the account so that he does
techconsole_c	veteran_new:techconsole_c	object/tangible/veteran_reward/frn_tech_console_sectional_c.iff	0	0		0		not accidentally claim it using an unintended character
techconsole_d	veteran_new:techconsole_d	object/tangible/veteran_reward/frn_tech_console_sectional_d.iff	0	0		0		
mini_jabba	veteran_new:mini_jabba	object/tangible/veteran_reward/frn_vet_jabba_toy.iff	0	0		0		Can Trade In means the item can be destroyed and the account re-granted the account feature id
mini_stormtrooper	veteran_new:mini_stormtrooper	object/tangible/veteran_reward/frn_vet_stormtrooper_toy.iff	0	0		0		so that the item can be claimed again by a different (or same) character on the account
mini_r2	veteran_new:mini_r2	object/tangible/veteran_reward/frn_vet_r2_toy.iff	0	0		0		
mini_protocoldroid	veteran_new:mini_protocoldroid	object/tangible/veteran_reward/frn_vet_protocol_droid_toy.iff	0	0		0		
mini_xwing	veteran_new:mini_xwing	object/tangible/veteran_reward/frn_vet_x_wing_toy.iff	0	0		0		
mini_tiefighter	veteran_new:mini_tiefighter	object/tangible/veteran_reward/frn_vet_tie_fighter_toy.iff	0	0		0		
falconcouch	veteran_new:falconcouch	object/tangible/veteran_reward/frn_couch_falcon_corner_s01.iff	0	0		0
falconchair	veteran_new:falconchair	object/tangible/veteran_reward/frn_couch_falcon_section_s01.iff	0	0		0
poweredharvester	veteran_new:poweredharvester	object/tangible/veteran_reward/harvester.iff	0	1		0
resourcecrate	veteran_new:resourcecrate	object/tangible/veteran_reward/resource.iff	0	1		0
sorosuub	veteran_new:sorosuub	object/tangible/space/veteran_reward/sorosuub_space_yacht_deed.iff	0	0		1
varactyl	veteran_new:varactyl	object/tangible/deed/ep3_pet_deed/varactyl_deed.iff	0	1		0
barc_speeder	veteran_new:barc_speeder	object/tangible/deed/vehicle_deed/barc_speeder_deed.iff	0	1		0
holo_lambda	veteran_new:holo_lambda	object/tangible/veteran_reward/frn_vet_holo_lambda.iff	0	0		1
holo_corvette	veteran_new:holo_corvette	object/tangible/veteran_reward/frn_vet_holo_corvette.iff	0	0		1
houseplant	veteran_new:houseplant	object/tangible/veteran_reward/frn_vet_houseplant.iff	0	0		0
holo_impguard	veteran_new:impguard	object/tangible/veteran_reward/frn_vet_holo_imperial_guard.iff	0	0		0
mini_cupa	veteran_new:cupa	object/tangible/veteran_reward/frn_vet_cu_pa_toy.iff	0	0		0
holo_starfighter	veteran_new:holo_starfighter	object/tangible/veteran_reward/frn_vet_holo_starfighter.iff	0	0		0
holo_sandcrawler	veteran_new:holo_sandcrawler	object/tangible/veteran_reward/frn_vet_holo_sandcrawler.iff	0	0		0
holo_deathstar	veteran_new:holo_deathstar	object/tangible/veteran_reward/frn_vet_holo_deathstar.iff	0	0		0
holo_leia	veteran_new:holo_leia	object/tangible/veteran_reward/frn_vet_holo_leia.iff	0	0		0
mini_dewback	veteran_new:mini_dewback	object/tangible/veteran_reward/frn_vet_dewback_toy.iff	0	0		0
holo_yoda	veteran_new:holo_yoda	object/tangible/veteran_reward/frn_vet_holo_yoda.iff	0	0		0
emp_chair	veteran_new:emp_chair	object/tangible/veteran_reward/frn_vet_emp_chair.iff	0	0		0
holo_jawa	veteran_new:holo_jawa	object/tangible/veteran_reward/frn_vet_holo_jawa.iff	0	0		0
mini_rancor	veteran_new:mini_rancor	object/tangible/veteran_reward/frn_vet_rancor_toy.iff	0	0		0
mini_boba	veteran_new:mini_boba	object/tangible/veteran_reward/frn_vet_boba_toy.iff	0	0		0
mini_atat	veteran_new:mini_atat	object/tangible/veteran_reward/frn_vet_atat_toy.iff	0	0		0
rug_imperial	veteran_new:rug_imperial	object/tangible/veteran_reward/frn_vet_rug_imperial.iff	0	1		0
rug_rebel	veteran_new:rug_rebel	object/tangible/veteran_reward/frn_vet_rug_rebel.iff	0	1		0
fireplace	veteran_new:fireplace	object/tangible/veteran_reward/frn_vet_fireplace.iff	0	0		0
display_stand	veteran_new:display_stand	object/tangible/veteran_reward/frn_vet_display_stand.iff	0	0		0
wookiee_house	veteran_new:wookiee_house	object/tangible/veteran_reward/one_year_anniversary/painting_10.iff	0	0		1
painting_11	veteran_new:painting_11	object/tangible/veteran_reward/frn_vet_painting_s011.iff	0	0		1
tow_retail_reward	veteran_new:retail_reward	object/tangible/veteran_reward/tow_retail_reward.iff	0	1		0
transport_skiff	veteran_new:transport_skiff	object/tangible/veteran_reward/vehicle_transport_skiff.iff	0	1		0
instant_travel	veteran_new:instant_travel_terminal	object/tangible/veteran_reward/instant_travel_terminal.iff	0	0		1
painting_emperor	veteran_new:painting_emperor	object/tangible/furniture/decorative/vet_reward_emperor_painting.iff	0	0		1
painting_rebel	veteran_new:painting_rebel	object/tangible/furniture/decorative/vet_reward_rebel_painting.iff	0	0		1
respec_voucher	veteran_new:respec_voucher	object/tangible/veteran_reward/respec_voucher_deed.iff	0	1		0
storage_increase	veteran_new:structure_increase	object/tangible/veteran_reward/structure_storage_increase_deed.iff	0	1		0
holo_darth_vader	veteran_new:holo_darth_vader	object/tangible/veteran_reward/frn_vet_holo_darth_vader.iff	0	0		0
holo_luke_skywalker	veteran_new:holo_luke_skywalker	object/tangible/veteran_reward/frn_vet_holo_luke_skywalker.iff	0	0		0
privateer_travel	veteran_new:instant_travel_privateer_terminal	object/tangible/veteran_reward/instant_travel_terminal_privateer.iff	0	0		1
mini_tusken	veteran_new:mini_tusken	object/tangible/veteran_reward/frn_vet_tusken_raider_toy.iff	0	0		0
mini_salacious	veteran_new:mini_salacious	object/tangible/veteran_reward/frn_vet_salacious_crumb_toy.iff	0	0		0
pet_nightspider	veteran_new:pet_nightspider	object/tangible/veteran_reward/vr_nightspider_deed.iff	0	1		0
pet_mouse_droid	veteran_new:pet_mouse_droid	object/tangible/veteran_reward/vr_mouse_droid_deed.iff	0	1		0
pet_bearded_jax	veteran_new:pet_bearded_jax	object/tangible/veteran_reward/vr_bearded_jax_deed.iff	0	1		0
cybernetic_xp_chip	veteran_new:cybernetic_experience_chip	object/tangible/veteran_reward/exp_buff_item_crate.iff	0	1		0
walker_at_rt	veteran_new:walker_at_rt	object/tangible/veteran_reward/vehicle_walker_at_rt_camo.iff	0	1		0
return_painting	veteran_new:return_painting	object/tangible/veteran_reward/frn_vet_painting_april_07.iff	0	1		0
pet_gacklebat	veteran_new:pet_gacklebat	object/tangible/veteran_reward/vr_gacklebat_deed.iff	0	1		0
pet_mynock	veteran_new:pet_mynock	object/tangible/veteran_reward/vr_mynock_deed.iff	0	1		0
painting_anniversary_s30	veteran_new:anniversary_s30	object/tangible/veteran_reward/frn_vet_painting_anniversary_s30.iff	0	0		1
goggles_anniversary	veteran_new:anniversary_goggles	object/tangible/wearables/goggles/goggles_anniversary.iff	0	0		1
painting_summit_s02	veteran_new:painting_summit_s02	object/tangible/veteran_reward/frn_vet_painting_community_summit_s02.iff	0	0		1
instant_travel_royal_ship	veteran_new:instant_travel_terminal_royal_ship	object/tangible/deed/vehicle_deed/instant_travel_terminal_royal_ship_deed.iff	0	0		1
carbonite_gungan	veteran_new:carbonite_gungan	object/tangible/veteran_reward/frn_vet_carbonite_gungan.iff	0	0		0
carbonite_ugnaught	veteran_new:carbonite_ugnaught	object/tangible/veteran_reward/frn_vet_carbonite_ugnaught.iff	0	0		0
carbonite_geonosian	veteran_new:carbonite_geonosian	object/tangible/veteran_reward/frn_vet_carbonite_geonosian.iff	0	0		0
city_flag_kit	veteran_new:city_flag_kit	object/tangible/veteran_reward/city_flag_kit.iff	0	0		0
podracer_statue	veteran_new:podracer_statue	object/tangible/veteran_reward/frn_vet_podracer_statue.iff	0	0		0
st_boss_battle_droid	veteran_new:st_boss_battle_droid	st_cn_vet_reward_super_battle_droid_boss	0	0		1
st_boss_rebel_comm	veteran_new:st_boss_rebel_comm	st_cn_vet_reward_rebel_commando_boss	0	0		1
st_boss_stormtrooper	veteran_new:st_boss_stormtrooper	st_cn_vet_reward_stormtrooper_boss	0	0		1
buddy_token	veteran_new:buddy_token	col_buddy_token	0	1		0
buddy_xp_chip	veteran_new:buddy_xp_chip	item_reward_buddy_xp_chip_06_01	0	1		0
st_dark_jedi_boss	veteran_new:st_dark_jedi_boss	st_cn_vet_reward_dark_jedi_boss	0	0		1
st_nightsister_boss	veteran_new:st_nightsister_boss	st_cn_vet_reward_nightsister_boss	0	0		1
st_tusken_boss	veteran_new:st_tusken_boss	st_cn_vet_reward_tusken_boss	0	0		1
homing_beacon	veteran_new:homing_beacon	item_vet_homing_beacon_03_01	0	0		1
fan_gathering_08	veteran_new:galactic_gathering_08_painting	item_galactic_gathering_2008_painting_04_01	0	0		1
hover_chair	veteran_new:hover_chair	item_deed_hover_chair_06_01	0	1		0
yoda_fountain	veteran_new:yoda_fountain	item_vet_63_month_yoda_fountain	0	0		1
emp_statue	veteran_new:emp_statue	item_vet_63_month_palpatine_statue	0	0		1
jedi_temple	veteran_new:jedi_temple	item_vet_66_month_jedi_temple	0	0		0
jedi_temple_burning	veteran_new:jedi_temple_burning	item_vet_66_month_jedi_temple_burning	0	0		0
cts_kauri_painting	veteran_new:cts_kauri_painting	object/tangible/furniture/house_cleanup/cts_kauri_painting.iff	0	0		1
cts_kauri_greeter	veteran_new:cts_kauri_greeter	object/tangible/furniture/house_cleanup/cts_kauri_box.iff	0	0		1
cts_tarquinas_painting	veteran_new:cts_tarquinas_painting	object/tangible/furniture/house_cleanup/cts_tarquinas_painting.iff	0	0		1
cts_tarquinas_greeter	veteran_new:cts_tarquinas_greeter	object/tangible/furniture/house_cleanup/cts_tarquinas_box.iff	0	0		1
cts_valcyn_painting	veteran_new:cts_valcyn_painting	object/tangible/furniture/house_cleanup/cts_valcyn_painting.iff	0	0		1
cts_valcyn_greeter	veteran_new:cts_valcyn_greeter	object/tangible/furniture/house_cleanup/cts_valcyn_box.iff	0	0		1
cts_kettemoor_painting	veteran_new:cts_kettemoor_painting	object/tangible/furniture/house_cleanup/cts_kettemoor_painting.iff	0	0		1
cts_kettemoor_greeter	veteran_new:cts_kettemoor_greeter	object/tangible/furniture/house_cleanup/cts_kettemoor_box.iff	0	0		1
cts_scylla_painting	veteran_new:cts_scylla_painting	object/tangible/furniture/house_cleanup/cts_scylla_painting.iff	0	0		1
cts_scylla_greeter	veteran_new:cts_scylla_greeter	object/tangible/furniture/house_cleanup/cts_scylla_box.iff	0	0		1
cts_naritus_painting	veteran_new:cts_naritus_painting	object/tangible/furniture/house_cleanup/cts_naritus_painting.iff	0	0		1
cts_naritus_greeter	veteran_new:cts_naritus_greeter	object/tangible/furniture/house_cleanup/cts_naritus_box.iff	0	0		1
cts_lowca_painting	veteran_new:cts_lowca_painting	object/tangible/furniture/house_cleanup/cts_lowca_painting.iff	0	0		1
cts_lowca_greeter	veteran_new:cts_lowca_greeter	object/tangible/furniture/house_cleanup/cts_lowca_box.iff	0	0		1
cts_intrepid_painting	veteran_new:cts_intrepid_painting	object/tangible/furniture/house_cleanup/cts_intrepid_painting.iff	0	0		1
cts_intrepid_greeter	veteran_new:cts_intrepid_greeter	object/tangible/furniture/house_cleanup/cts_intrepid_box.iff	0	0		1
cts_wanderhome_painting	veteran_new:cts_wanderhome_painting	object/tangible/furniture/house_cleanup/cts_wanderhome_painting.iff	0	0		1
cts_wanderhome_greeter	veteran_new:cts_wanderhome_greeter	object/tangible/furniture/house_cleanup/cts_wanderhome_box.iff	0	0		1
cts_tempest_painting	veteran_new:cts_tempest_painting	object/tangible/furniture/house_cleanup/cts_tempest_painting.iff	0	0		1
cts_tempest_greeter	veteran_new:cts_tempest_greeter	object/tangible/furniture/house_cleanup/cts_tempest_box.iff	0	0		1
cts_corbantis_painting	veteran_new:cts_corbantis_painting	object/tangible/furniture/house_cleanup/cts_corbantis_painting.iff	0	0		1
cts_corbantis_greeter	veteran_new:cts_corbantis_greeter	object/tangible/furniture/house_cleanup/cts_corbantis_box.iff	0	0		1
cts_infinity_painting	veteran_new:cts_infinity_painting	object/tangible/furniture/house_cleanup/cts_infinity_painting.iff	0	0		1
cts_infinity_greeter	veteran_new:cts_infinity_greeter	object/tangible/furniture/house_cleanup/cts_infinity_box.iff	0	0		1
cts_test_painting	veteran_new:cts_infinity_painting	object/tangible/furniture/house_cleanup/cts_infinity_painting.iff	0	0		1
cts_test_greeter	veteran_new:cts_infinity_greeter	object/tangible/furniture/house_cleanup/cts_infinity_box.iff	0	0		1
tcg_blk_dress	veteran_new:tcg_black_corset_dress	item_tcg_loot_reward_series1_black_corset_dress	0	0		1
tcg_naboo_jacket	veteran_new:tcg_naboo_jacket	item_tcg_loot_reward_series1_naboo_jacket	0	0		1
tcg_dooku_bust	veteran_new:tcg_dooku_bust	item_tcg_loot_reward_series1_dooku_bust	0	0		1
tcg_display_case_01	veteran_new:tcg_display_case_01	item_tcg_loot_reward_series1_display_case_01	0	0		0
tcg_gorax_ear	veteran_new:tcg_gorax_ear	item_tcg_loot_reward_series1_gorax_ear	0	0		1
tcg_bas_relief	veteran_new:tcg_bas_relief	item_tcg_loot_reward_series1_bas_relief	0	0		0
tcg_glow_blueeyes	veteran_new:tcg_glowing_blue_eyes	item_tcg_loot_reward_series1_glowing_blue_eyes	0	0		1
tcg_glow_redeyes	veteran_new:tcg_glowing_red_eyes	item_tcg_loot_reward_series1_glowing_red_eyes	0	0		1
tcg_vendor_gungan	veteran_new:tcg_vendor_gungan	item_tcg_loot_reward_series1_vendor_gungan	0	0		0
tcg_houseclean_kit	veteran_new:tcg_housecleaning_kit	item_tcg_loot_reward_series1_housecleaning_kit	0	0		1
tcg_in_fountain_01	veteran_new:tcg_indoor_fountain_01	item_tcg_loot_reward_series1_indoor_fountain_01	0	0		0
tcg_vendor_jawa	veteran_new:tcg_vendor_jawa	item_tcg_loot_reward_series1_vendor_jawa	0	0		0
tcg_greet_meatlump	veteran_new:tcg_greeter_meatlump	item_tcg_loot_reward_series1_greeter_meatlump	0	0		0
tcg_mechno_chair	veteran_new:tcg_mechno_chair	item_tcg_loot_reward_series1_mechno_chair	0	0		1
tcg_nuna_ball_adv	veteran_new:tcg_nuna_ball_advertisement	item_tcg_loot_reward_series1_nuna_ball_advertisement	0	0		0
tcg_podr_gasgano	veteran_new:tcg_podracer_gasgano	item_tcg_loot_reward_series1_podracer_gasgano	0	0		1
tcg_paint_jedi_crest	veteran_new:tcg_painting_jedi_crest	item_tcg_loot_reward_series1_painting_jedi_crest	0	0		0
tcg_painting_trooper	veteran_new:tcg_painting_trooper	item_tcg_loot_reward_series1_painting_trooper	0	0		0
tcg_radtrooper_bdg	veteran_new:tcg_radtrooper_badge	item_tcg_loot_reward_series1_radtrooper_badge	0	0		0
tcg_sith_speeder	veteran_new:tcg_sith_speeder	item_tcg_loot_reward_series1_sith_speeder	0	0		1
tcg_tusken_tal	veteran_new:tcg_tusken_talisman	item_tcg_loot_reward_series1_tusken_talisman	0	0		1
tcg_organa_speeder	veteran_new:tcg_organa_speeder	item_tcg_loot_reward_series1_organa_speeder	0	0		1
tcg_comp_con_01	veteran_new:tcg_computer_console_01	item_tcg_loot_reward_series1_computer_console_01	0	0		0
tcg_vendor_ewok	veteran_new:tcg_vendor_ewok	item_tcg_loot_reward_series1_vendor_ewok	0	0		0
tcg_h_hydrospanner	veteran_new:tcg_hans_hydrospanner	item_tcg_loot_reward_series1_hans_hydrospanner	0	0		0
tcg_paint_imp_prop	veteran_new:tcg_painting_imperial_propaganda	item_tcg_loot_reward_series1_painting_imperial_propaganda	0	0		0
tcg_in_garden_02	veteran_new:tcg_indoor_garden_02	item_tcg_loot_reward_series1_indoor_garden_02	0	0		0
tcg_or_flightsuit	veteran_new:tcg_orange_flightsuit	item_tcg_loot_reward_series1_orange_flightsuit	0	0		1
tcg_blk_flightsuit	veteran_new:tcg_black_flightsuit	item_tcg_loot_reward_series1_black_flightsuit	0	0		1
tcg_greeter_monk	veteran_new:tcg_greeter_bomarr_monk	item_tcg_loot_reward_series1_greeter_bomarr_monk	0	0		0
tcg_target_creature	veteran_new:tcg_target_creature	item_tcg_loot_reward_series1_target_creature	0	0		1
tcg_beru_cookbook	veteran_new:tcg_beru_whitesuns_cookbook	item_tcg_loot_reward_series1_beru_whitesuns_cookbook	0	0		1
tcg_jedi_lib_bkshelf	veteran_new:tcg_jedi_library_bookshelf	item_tcg_loot_reward_series1_jedi_library_bookshelf	0	0		0
tcg_exp_vwing	veteran_new:tcg_exp_vwing	item_tcg_loot_reward_series1_v_wing	0	0		1
tcg_exp_podr_maw	veteran_new:tcg_exp_podr_maw	item_tcg_loot_reward_series1_podracer_mawhonic	0	0		1
tcg_exp_skull	veteran_new:tcg_exp_skull	item_tcg_loot_reward_series1_sanyassan_skull	0	0		1
tcg_exp_game_tbl	veteran_new:tcg_exp_game_tbl	item_tcg_loot_reward_series1_video_game_table	0	0		1
tcg_exp_org_dtpd	veteran_new:tcg_exp_org_dtpd	item_tcg_loot_reward_series1_organizational_datapad	0	0		1
tcg_exp_barn	veteran_new:tcg_exp_barn	item_tcg_loot_reward_series1_barn	0	0		1
tcg_exp_ver_dtpd	veteran_new:tcg_exp_ver_dtpd	item_tcg_loot_reward_series1_versafunction88_datapad	0	0		0
tcg_exp_tooth	veteran_new:tcg_exp_tooth	item_tcg_loot_reward_series1_keelkana_tooth	0	0		0
tcg_exp_vader	veteran_new:tcg_exp_vader	item_tcg_loot_reward_series1_painting_darth_vader	0	0		0
tcg_exp_diner	veteran_new:tcg_exp_diner	item_tcg_loot_reward_series1_diner_package	0	0		1
tcg_exp_case02	veteran_new:tcg_exp_case02	item_tcg_loot_reward_series1_display_case_02	0	0		0
tcg_exp_grt_ewok	veteran_new:tcg_exp_grt_ewok	item_tcg_loot_reward_series1_greeter_ewok	0	0		0
tcg_exp_chonbust	veteran_new:tcg_exp_chonbust	item_tcg_loot_reward_series1_chon_bust	0	0		1
tcg_exp_vendmonk	veteran_new:tcg_exp_vendmonk	item_tcg_loot_reward_series1_vendor_bomarr_monk	0	0		0
tcg_exp_grt_drd	veteran_new:tcg_exp_grt_drd	item_tcg_loot_reward_series1_greeter_serving_droid	0	0		0
tcg_exp_drink	veteran_new:tcg_exp_drink	item_tcg_loot_reward_series1_drink_dispenser	0	0		0
tcg_exp_reb_prop	veteran_new:tcg_exp_reb_prop	item_tcg_loot_reward_series1_painting_alliance_propaganda	0	0		0
tcg_exp_vendmeat	veteran_new:tcg_exp_vendmeat	item_tcg_loot_reward_series1_vendor_meatlump	0	0		0
tcg_exp_arc_suit	veteran_new:tcg_exp_arc_suit	item_tcg_loot_reward_series1_arc170_flightsuit	0	0		1
tcg_exp_garden01	veteran_new:tcg_exp_garden01	item_tcg_loot_reward_series1_indoor_garden_01	0	0		0
tcg_exp_mand_box	veteran_new:tcg_exp_mand_box	item_tcg_loot_reward_series1_mandalorian_strongbox	0	0		0
tcg_exp_comp02	veteran_new:tcg_exp_comp02	item_tcg_loot_reward_series1_computer_console_02	0	0		0
tcg_exp_in_fou02	veteran_new:tcg_exp_in_fou02	item_tcg_loot_reward_series1_indoor_fountain_02	0	0		0
tcg_exp_lepese	veteran_new:tcg_exp_lepese	item_tcg_loot_reward_series1_lepese_dictionary	0	0		0
tcg_exp_morgukai	veteran_new:tcg_exp_morgukai	item_tcg_loot_reward_series1_morgukai_shadow_scroll	0	0		1
tcg_exp_snowjack	veteran_new:tcg_exp_snowjack	item_tcg_loot_reward_series1_snow_jacket	0	0		1
tcg_exp_vader_st	veteran_new:tcg_exp_vader_st	item_tcg_loot_reward_series1_darth_vader_statuette	0	0		0
tcg_exp_leia_st	veteran_new:tcg_exp_leia_st	item_tcg_loot_reward_series1_princess_leia_statuette	0	0		0
tcg_exp_grt_jawa	veteran_new:tcg_exp_grt_jawa	item_tcg_loot_reward_series1_greeter_jawa	0	0		0	
tcg_exp_vendserv	veteran_new:tcg_exp_vendserv	item_tcg_loot_reward_series1_vendor_serving_droid	0	0		0	
tcg_exp_fishtank	veteran_new:tcg_exp_fishtank	item_tcg_loot_reward_series1_fish_tank	0	0		0	
tcg_exp_grt_gung	veteran_new:tcg_exp_grt_gung	item_tcg_loot_reward_series1_greeter_gungan	0	0		0	
chp_11_recap_gift	veteran_new:chp_11_recap_gift	recapture_gift_chapter_11_hoth_hologram_02_01	0	0		0	1
pkup_recapture_gift	veteran_new:packup_recapture_gift	item_cts_sarlacc_non_functional	0	0		0	1
pkup_loyalty_gift	veteran_new:packup_loyalty_gift	item_cts_sarlacc_mini_game	0	0		0	1
email_col_01	veteran_new:email_col_01	col_mail_opt_in_1_01	0	0		1	
email_col_02	veteran_new:email_col_02	col_mail_opt_in_1_02	0	0		1	
greeter_gamorrean	veteran_new:greeter_gamorrean	item_vet_reward_greeter_gamorrean	0	0		0	
tcg3_bobafett	veteran_new:tcg3_bobafett	item_tcg_loot_reward_series3_boba_fett_statue	0	0		0	
tcg3_jangofett	veteran_new:tcg3_jangofett	item_tcg_loot_reward_series3_jango_fett_memorial_statue	0	0		0	
tcg3_sithroom	veteran_new:tcg3_sithroom	item_tcg_loot_reward_series3_sith_meditation_room_deed	0	0		1	
tcg3_jediroom	veteran_new:tcg3_jediroom	item_tcg_loot_reward_series3_jedi_meditation_room_deed	0	0		1	
tcg3_koro2_speeder	veteran_new:tcg3_koro2_speeder	item_tcg_loot_reward_series3_koro2_exodrive_airspeeder	0	0		1	
tcg3_bantha	veteran_new:tcg3_bantha	item_tcg_loot_reward_series3_armored_bantha	0	0		1	
tcg3_ipg_podracer	veteran_new:tcg3_ipg_podracer	item_tcg_loot_reward_series3_podracer_longtail	0	0		1
tcg3_battledroid_gtr	veteran_new:tcg3_battledroid_gtr	item_tcg_loot_reward_series3_greeter_battle_droid	0	0		0
tcg3_med_table	veteran_new:tcg3_med_table	item_tcg_loot_reward_series3_empal_surecon_center_medical_table	0	0		0
tcg3_skull_banner	veteran_new:tcg3_skull_banner	item_tcg_loot_reward_series3_mandalorian_skull_banner	0	0		0
tcg3_massiff_pet	veteran_new:tcg3_massiff_pet	item_tcg_loot_reward_series3_creature_pet_deed_massiff	0	0		0
tcg3_swamp_speeder	veteran_new:tcg3_swamp_speeder	item_tcg_loot_reward_series3_swamp_speeder	0	0		1
tcg3_wampa_rug	veteran_new:tcg3_wampa_rug	item_tcg_loot_reward_series3_wompa_skin_rug	0	0		0
tcg3_hands_seduction	veteran_new:tcg3_hands_seduction	item_tcg_loot_reward_series3_gargans_hands_of_seduction	0	0		1
tcg3_nightsister_vnd	veteran_new:tcg3_nightsister_vnd	item_tcg_loot_reward_series3_nightsister_vendor	0	0		0
tcg3_toydarian_gtr	veteran_new:tcg3_toydarian_gtr	item_tcg_loot_reward_series3_greeter_toydarian	0	0		0
tcg3_torpedo_warhead	veteran_new:tcg3_torpedo_warhead	item_tcg_loot_reward_series3_hh_15_torpedo_warhead	0	0		0
tcg3_jetpack_prints	veteran_new:tcg3_jetpack_prints	item_tcg_loot_reward_series3_merr_sonn_jt12_jetpack_blueprints	0	0		0
tcg3_target_dummy	veteran_new:tcg3_target_dummy	item_tcg_loot_reward_series3_target_dummy	0	0		1
tcg3_wook_pipe	veteran_new:tcg3_wook_pipe	item_tcg_loot_reward_series3_wookiee_ceremonial_pipe	0	0		0
tcg3_griev_gutsack	veteran_new:tcg3_griev_gutsack	item_tcg_loot_reward_series3_general_grievous_gutsack	0	0		0
tcg3_mustafar_ad	veteran_new:tcg3_mustafar_ad	item_tcg_loot_reward_series3_mustafar_travel_advertisement	0	0		0
tcg3_swgtcgpainting	veteran_new:tcg3_swgtcgpainting	item_tcg_loot_reward_series3_swg_tcg_painting	0	0		0
tcg3_hoth_ad	veteran_new:tcg3_hoth_ad	item_tcg_loot_reward_series3_hoth_travel_advertisement	0	0		0
tcg3_palpatine_stat	veteran_new:tcg3_palpatine_stat	item_tcg_loot_reward_series3_emperor_palpatine_statuette	0	0		0
tcg3_vader_obi_dio	veteran_new:tcg3_vader_obi_dio	item_tcg_loot_reward_series3_darth_vader_obi_wan_diorama	0	0		0
tcg3_house_sign	veteran_new:tcg3_house_sign	item_tcg_loot_reward_series3_house_sign	0	0		1
tcg3_battledroid_vnd	veteran_new:tcg3_battledroid_vnd	item_tcg_loot_reward_series3_battle_droid_vendor	0	0		0
tcg3_guise_master	veteran_new:tcg3_guise_master	item_tcg_loot_reward_series3_guise_of_the_master	0	0		1
tcg3_tusken_gtr	veteran_new:tcg3_tusken_gtr	item_tcg_loot_reward_series3_greeter_tusken	0	0		0
email_col_03	veteran_new:email_col_03	col_mail_opt_in_1_03	0	0		1
update_9_mkting	veteran_new:update_9_mkting	item_small_naboo_house_model	0	0	0	1
email_col_04	veteran_new:email_col_04	col_mail_opt_in_2_01	0	0		1
windu_statue	veteran_new:windu_statue	item_vet_reward_72month_mace_windu	0	0		0
maul_statue	veteran_new:maul_statue	item_vet_reward_72month_darth_maul	0	0		0
email_col_05	veteran_new:email_col_05	col_mail_opt_in_2_02	0	0		1
ff_escape_pod	veteran_new:ff_escape_pod	item_fan_faire_09_live_quest_reward	0	0		1
ff_gg_painting	veteran_new:ff_gg_painting	item_fan_faire_09_painting	0	0		1
tcg4_g9_rigger	veteran_new:tcg4_g9_rigger	item_tcg_loot_reward_series4_location_itv_02_01	0	0		1
tcg4_pekopeko_mnt	veteran_new:tcg4_peko_peko_mount	item_tcg_loot_reward_series4_peko_peko_mount_02_01	0	0		1
tcg4_relax_pool	veteran_new:tcg4_relaxation_pool	item_tcg_loot_reward_series4_relaxation_pool_deed_02_01	0	0		1
tcg4_solar_sailer	veteran_new:tcg4_solar_sailer	item_tcg_loot_reward_series4_home_itv_02_01	0	0		0
tcg4_balta_podracer	veteran_new:tcg4_balta_podracer	item_tcg_loot_reward_series4_balta_podracer_02_01	0	0		1
tcg4_senate_pod	veteran_new:tcg4_senate_pod	item_tcg_loot_reward_series4_senate_pod_02_01	0	0		1
tcg4_geo_speeder	veteran_new:choice_description	item_tcg_loot_reward_series4_geonosian_speeder_02_01	0	0		0
tcg4_video_game	veteran_new:tcg4_video_game	item_tcg_loot_reward_series4_video_game_table_02_01	0	0		1
tcg4_tauntaun_ride	veteran_new:tcg4_tauntaun_ride	item_tcg_loot_reward_series4_tauntaun_ride_02_01	0	0		0
tcg4_nuna_pet	veteran_new:tcg4_nuna_pet	item_tcg_loot_reward_series4_creature_pet_deed_nuna_02_01	0	0		0
tcg4_palowick_grter	veteran_new:tcg4_palowick_greeter	item_tcg_loot_reward_series4_greeter_palowick	0	0		0
tcg4_guise_vapaad	veteran_new:tcg4_guise_of_vapaad	item_tcg_loot_reward_series4_guise_of_vapaad_02_01	0	0		0
tcg4_oil_bath	veteran_new:tcg4_oil_bath	item_tcg_loot_reward_series4_droid_oil_bath_02_01	0	0		0
tcg4_ns_grter	veteran_new:tcg4_nightsister_greeter	item_tcg_loot_reward_series4_greeter_nightsister	0	0		0
tcg4_toydar_vendor	veteran_new:tcg4_toydarian_vendor	item_tcg_loot_reward_series4_vendor_toydarian_02_01	0	0		0
tcg4_diorama	veteran_new:tcg4_leia_r2_diorama	item_tcg_loot_reward_series4_leia_and_r2_diorama_02_01	0	0		0
tcg4_stuffed_wampa	veteran_new:tcg4_stuffed_wampa	item_tcg_loot_reward_series4_stuffed_wampa_02_01	0	0		0
tcg4_chew_statuette	veteran_new:tcg4_chewbacca_statuette	item_tcg_loot_reward_series4_chewbacca_statuette_02_01	0	0		0
tcg4_falleens_fist	veteran_new:tcg4_falleens_fist	item_tcg_loot_reward_series4_falleens_fist_02_01	0	0		0
tcg4_ball_of_peace	veteran_new:tcg4_ball_of_peace	item_tcg_loot_reward_series4_ball_of_peace_02_01	0	0		0
tcg4_skyhopper_toy	veteran_new:tcg4_skyhopper_toy	item_tcg_loot_reward_series4_t16_toy_02_01	0	0		0
tcg4_tatoo_trvl_ad	veteran_new:tcg4_tatooine_travel_ad	item_tcg_loot_reward_series4_tatooine_travel_advertisement_02_01	0	0		0
tcg4_kash_trvl_ad	veteran_new:tcg4_kashyyyk_travel_ad	item_tcg_loot_reward_series4_kashyyyk_travel_advertisement_02_01	0	0		0
tcg4_kit_vendor	veteran_new:tcg4_kitonak_vendor	item_tcg_loot_reward_series4_vendor_kitonak_02_01	0	0		0
tcg4_med_table	veteran_new:tcg4_medical_table	item_tcg_loot_reward_series4_medical_table_02_01	0	0		0
tcg4_stuff_tauntaun	veteran_new:tcg4_stuffed_tauntaun	item_tcg_loot_reward_series4_stuffed_tauntaun_02_01	0	0		0
tcg4_han_statuette	veteran_new:tcg4_han_solo_statuette	item_tcg_loot_reward_series4_han_solo_statuette_02_01	0	0		0
tcg4_chand_dress	veteran_new:tcg4_chandrilan_dress	item_tcg_loot_reward_series4_chandrilan_dress_02_01	0	0		0
tcg4_child_bed	veteran_new:tcg4_child_bed	item_tcg_loot_reward_series4_child_bed_02_01	0	0		0
tcg4_mystery_rug	veteran_new:tcg4_mysterious_rug	item_tcg_loot_reward_series4_generic_rug_02_01	0	0		0
tcg5_air2_speeder	veteran_new:tcg5_air2_swoop_speeder	item_tcg_loot_reward_series5_air2_swoop_speeder	0	0		0
tcg5_atat_blueprint	veteran_new:tcg5_atat_blueprint	item_tcg_loot_reward_series5_atat_blueprint	0	0		0
tcg5_atat_head_itv	veteran_new:tcg5_atat_head_itv	item_tcg_loot_reward_series5_atat_head_itv	0	0		0
tcg5_atat_statuette	veteran_new:tcg5_atat_statuette	item_tcg_loot_reward_series5_atat_statuette	0	0		0
tcg5_cybernetic_arm	veteran_new:tcg5_cybernetic_rots_arm	item_tcg_loot_reward_series5_cybernetic_rots_arm	0	0		0
tcg5_deathstar_holo	veteran_new:tcg5_deathstar_hologram	item_tcg_loot_reward_series5_deathstar_hologram	0	0		0
tcg5_fg_8t8_podracer	veteran_new:tcg5_fg_8t8_podracer	item_tcg_loot_reward_series5_fg_8t8_podracer	0	0		0
tcg5_royal_guard	veteran_new:tcg5_greeter_royal_guard	item_tcg_loot_reward_series5_greeter_royal_guard	0	0		0
tcg5_senate_guard	veteran_new:tcg5_greeter_senate_guard	item_tcg_loot_reward_series5_greeter_senate_guard	0	0		0
tcg5_house_sign	veteran_new:tcg5_house_sign	item_tcg_loot_reward_series5_house_sign	0	0		0
tcg5_hunters_poster	veteran_new:tcg5_galactic_hunters_poster	item_tcg_loot_reward_series5_galactic_hunters_poster	0	0		0
tcg5_jabbas_spit	veteran_new:tcg5_jabbas_roasting_spit	item_tcg_loot_reward_series5_jabbas_roasting_spit	0	0		0
tcg5_klorri_shield	veteran_new:tcg5_klorri_clan_shield	item_tcg_loot_reward_series5_klorri_clan_shield	0	0		0
tcg5_lcd_screen	veteran_new:tcg5_lcd_screen	item_tcg_loot_reward_series5_lcd_screen	0	0		0
tcg5_must_diorama	veteran_new:tcg5_mustafar_diorama	item_tcg_loot_reward_series5_mustafar_diorama	0	0		0
tcg5_naboo_cap	veteran_new:tcg5_naboo_officer_cap	item_tcg_loot_reward_series5_ceremonial_travel_headdress	0	0		0
tcg5_nightsistr_pack	veteran_new:tcg5_nightsister_backpack	item_tcg_loot_reward_series5_nightsister_backpack	0	0		0
tcg5_painting_jedi	veteran_new:tcg5_painting_jedi_techniques	item_tcg_loot_reward_series5_painting_jedi_techniques	0	0		0
tcg5_pet_scurrier	veteran_new:tcg5_creature_pet_deed_scurrier_02_01	item_tcg_loot_reward_series5_creature_pet_deed_scurrier_02_01	0	0		0
tcg5_player_hangar	veteran_new:tcg5_player_house_hangar	item_tcg_loot_reward_series5_player_house_hangar	0	0		0
tcg5_rain_storm	veteran_new:tcg5_rain_storm	item_tcg_loot_reward_series5_rain_storm	0	0		0
tcg5_signal_unit	veteran_new:tcg5_signal_unit	item_tcg_loot_reward_series5_signal_unit	0	0		0
tcg5_skywalkr_statue	veteran_new:tcg5_skywalker_statuette_02_01	item_tcg_loot_reward_series5_skywalker_statuette_02_01	0	0		0
tcg5_theater_poster	veteran_new:tcg5_theater_poster	item_tcg_loot_reward_series5_theater_poster	0	0		0
tcg5_tie_chair	veteran_new:tcg5_tiefighter_chair	item_tcg_loot_reward_series5_tiefighter_chair	0	0		0
tcg5_title	veteran_new:tcg5_title	item_tcg_loot_reward_series5_title	0	0		0
tcg5_trench_run	veteran_new:tcg5_trench_run_diorama	item_tcg_loot_reward_series5_trench_run_diorama	0	0		0
tcg5_vader_statuette	veteran_new:tcg5_vader_statuette	item_tcg_loot_reward_series5_vader_statuette	0	0		0
tcg5_varactyl_armor	veteran_new:tcg5_varactyl_armor	item_tcg_loot_reward_series5_armored_varactyl_statue	0	0		0
tcg5_xj6_air_speeder	veteran_new:tcg5_xj6_air_speeder	item_tcg_loot_reward_series5_xj6_air_speeder	0	0		0
fan_faire_2009	veteran_new:announcement_fan_faire_2009	item_dianoga_dumpster	0	0		1
dt_painting	veteran_new:dt_painting	item_death_troopers_painting	0	0		1
email_col_06	veteran_new:email_col_06	col_mail_opt_in_2_03	0	0		1
6Anniversary_recap	veteran_new:six_ann_recap	nebulon_frigate_holo_recapture	0	0		1
6Anniversary_loyal	veteran_new:six_ann_loyal	nebulon_frigate_holo_retention	0	0		1	
buddy_02_token	veteran_new:buddy_token	col_buddy_02_token	0	1		0	
buddy_02_holo	veteran_new:buddy_holo	item_auto_level_50_buddy_conversion	0	1		0	
email_col_07	veteran_new:email_col_07	col_mail_opt_in_3_01	0	0		1	
75month_houseplant	veteran_new:vet_75month_houseplant	item_vet_reward_75month_houseplant_02	0	0		0	
email_col_08	veteran_new:email_col_08	col_mail_opt_in_3_02	0	0		1	
grievous_wheel_bike	veteran_new:grievous_wheel_bike	item_deed_grievous_wheel_bike	0	0		1	
tcg6_a1_floater	veteran_new:tcg6_a1_floater	item_tcg_loot_reward_series6_a1_deluxe_floater		0	0		0
tcg6_baby_colo_claw	veteran_new:tcg6_baby_colo_claw	item_tcg_loot_reward_series6_baby_colo_set		0	0		0
tcg6_bdroid_statue	veteran_new:tcg6_battle_droid_statuette	item_tcg_loot_reward_series6_build03_battle_droid_statuette		0	0		0
tcg6_auto_feeder	veteran_new:tcg6_auto_feeder	item_tcg_loot_reward_series6_auto_feeder		0	0		0
tcg6_bespin_hologram	veteran_new:tcg6_bespin_hologram	item_tcg_loot_reward_series6_cloud_city_hologram		0	0		0
tcg6_dewback_armor	veteran_new:tcg6_dewback_armor	item_tcg_loot_reward_series6_dewback_armor		0	0		0
tcg6_emperor_spire	veteran_new:tcg6_emperor_spire	item_tcg_loot_reward_series6_deed_emperor_spire		0	0		0
tcg6_greedo_outfit	veteran_new:tcg6_greedo_outfit	item_tcg_loot_reward_series6_greedo_outfit		0	0		0
tcg6_gualaar_mount	veteran_new:tcg6_gualaar_mount	item_tcg_loot_reward_series6_gualaar_mount		0	0		0
tcg6_guise_fire	veteran_new:tcg6_guise_fire	item_tcg_loot_reward_series6_guise_of_fire		0	0		0
tcg6_guise_ice	veteran_new:tcg6_guise_ice	item_tcg_loot_reward_series6_guise_of_ice		0	0		0
tcg6_han_greedo	veteran_new:tcg6_han_greedo_diorama	item_tcg_loot_reward_series6_han_greedo_diorama		0	0		0
tcg6_hk47_poster	veteran_new:tcg6_hk47_poster	item_tcg_loot_reward_series6_build04_hkdroid_series_poster		0	0		0
tcg6_hk47_diorama	veteran_new:tcg6_hk47_mustafar_diorama	item_tcg_loot_reward_series6_build02_hk47_mustafar_diorama		0	0		0
tcg6_hk47_statuette	veteran_new:tcg6_hk47_statuette	item_tcg_loot_reward_series6_build01_hk47_statuette		0	0		0
tcg6_jedi_council	veteran_new:tcg6_jedi_council_diorama	item_tcg_loot_reward_series6_jedi_council_diorama		0	0		0
tcg6_muzzle	veteran_new:tcg6_muzzle	item_tcg_loot_reward_series6_beast_muzzle		0	0		0
tcg6_titles_painting	veteran_new:tcg6_titles_painting	item_tcg_loot_reward_series6_nightsister_painting		0	0		0
tcg6_ord_mantell_ad	veteran_new:tcg6_ord_mantell_ad	item_tcg_loot_reward_series6_travel_ad_ord_mantell		0	0		0
tcg6_rebel_spire	veteran_new:tcg6_rebel_spire	item_tcg_loot_reward_series6_deed_rebel_spire		0	0		0
tcg6_rickshaw	veteran_new:tcg6_ric_920_rickshaw	item_tcg_loot_reward_series6_ric_920_speeder		0	0		0
tcg6_cloud_car	veteran_new:tcg6_cloud_car	item_tcg_loot_reward_series6_cloud_car_itv		0	0		0
tcg6_ponda_arm	veteran_new:tcg6_ponda_baba_arm	item_tcg_loot_reward_series6_ponda_baba_arm		0	0		0
tcg6_shock_collar	veteran_new:tcg6_shock_collar	item_tcg_loot_reward_series6_shock_collar		0	0		0
tcg6_coruscant_ad	veteran_new:tcg6_coruscant_ad	item_tcg_loot_reward_series6_travel_ad_coruscant		0	0		0
tcg6_jabba_bed	veteran_new:tcg6_jabba_bed	item_tcg_loot_reward_series6_jabba_bed		0	0		0
tcg6_rancor_poster	veteran_new:tcg6_spined_rancor_poster	item_tcg_loot_reward_series6_beast_poster_spined_rancor		0	0		0
tcg6_lando_statuette	veteran_new:tcg6_lando_statuette	item_tcg_loot_reward_series6_lando_statuette		0	0		0
tcg6_house_lamp	veteran_new:tcg6_house_lamp	item_tcg_loot_reward_series6_house_lamp		0	0		0
tcg6_quenker_poster	veteran_new:tcg6_winged_quenker_poster	item_tcg_loot_reward_series6_beast_poster_winged_quenker		0	0		0
email_col_09	veteran_new:email_col_09	col_mail_opt_in_3_03	0	0		1	
gcw_recapture_gift_01	veteran_new:gcw_recapture_gift_01	item_reward_recapture_gcw_imperial_painting_01	0	0		1	
gcw_recapture_gift_02	veteran_new:gcw_recapture_gift_02	item_reward_recapture_gcw_rebel_painting_01	0	0		1	
gcw_loyalty_gift	veteran_new:gcw_loyalty_gift	item_reward_loyalty_gcw_01	0	0		1	
facebook_reward_01	veteran_new:facebook_reward_01	item_facebook_reward_01	0	0		1	
78month_ttgm_terminal	veteran_new:vet_78month_ttgm_terminal	item_vet_reward_78month_ttgm_itt	0	0		0	
tcg7_atpt_walker	veteran_new:tcg7_atpt_walker	item_tcg_loot_reward_series7_atpt_walker	0	0		1	
tcg7_miltransport	veteran_new:tcg7_miltransport	item_tcg_loot_reward_series7_military_transport	0	0		1	
tcg7_tie_canopy	veteran_new:tcg7_tie_canopy	item_tcg_loot_reward_series7_build01_tie_canopy	0	0		0	
tcg7_xwing_wing	veteran_new:tcg7_xwing_wing	item_tcg_loot_reward_series7_build02_xwing_wing	0	0		0	
tcg7_gunship_print	veteran_new:tcg7_gunship_blueprint	item_tcg_loot_reward_series7_build03_gunship_blueprint	0	0		0	
tcg7_ball_turret	veteran_new:tcg7_ball_turret	item_tcg_loot_reward_series7_build04_broken_ball_turret	0	0		0
tcg7_eweb_decor	veteran_new:tcg7_eweb_decor	item_tcg_loot_reward_series7_build05_eweb_decor	0	0		0
tcg7_vehicle_garage	veteran_new:tcg7_vehicle_garage	item_tcg_loot_reward_series7_deed_vehicle_garage	0	0		1
tcg7_commando_bnkr	veteran_new:tcg7_commando_bnkr	item_tcg_loot_reward_series7_deed_commando_bunker	0	0		1
tcg7_vip_bunker	veteran_new:tcg7_vip_bunker	item_tcg_loot_reward_series7_deed_vip_bunker	0	0		1
tcg7_purple_cape	veteran_new:tcg7_purple_cape	item_tcg_loot_reward_series7_purple_cape	0	0		0
tcg7_gold_cape	veteran_new:tcg7_gold_cape	item_tcg_loot_reward_series7_gold_cape	0	0		0
tcg7_handmade_sash	veteran_new:tcg7_handmade_sash	item_tcg_loot_reward_series7_handmade_sash	0	0		0
tcg7_embroid_sash	veteran_new:tcg7_embroidered_sash	item_tcg_loot_reward_series7_embroidered_sash	0	0		0
tcg7_tie_familiar	veteran_new:tcg7_tie_fighter_fam	item_tcg_loot_reward_series7_tie_fighter_familiar	0	0		1
tcg7_xwing_familiar	veteran_new:tcg7_xwing_fighter_fam	item_tcg_loot_reward_series7_xwing_fighter_familiar	0	0		1
tcg7_hutt_familiar	veteran_new:tcg7_hutt_fighter_fam	item_tcg_loot_reward_series7_hutt_fighter_familiar	0	0		1
tcg7_figrin_dan_rama	veteran_new:tcg7_figrin_dan_diorama	item_tcg_loot_reward_series7_figrin_dan_diorama	0	0		0
tcg7_max_rebo_rama	veteran_new:tcg7_max_rebo_diorama	item_tcg_loot_reward_series7_max_rebo_diorama	0	0		0
tcg7_camo_armor_kit	veteran_new:tcg7_camo_armor_kit	item_tcg_loot_reward_series7_camo_armor_kit	0	0		0
tcg7_bworn_armor_kit	veteran_new:tcg7_bworn_armor_kit	item_tcg_loot_reward_series7_battle_worn_armor_kit	0	0		0
tcg7_atst_chair	veteran_new:tcg7_atst_chair	item_tcg_loot_reward_series7_atst_chair	0	0		0
tcg7_swgtcgpainting	veteran_new:tcg7_swgtcgpainting	item_tcg_loot_reward_series7_commando_painting	0	0		0
tcg7_armored_pack	veteran_new:tcg7_armored_backpack	item_tcg_loot_reward_series7_armored_backpack	0	0		0
tcg7_recon_pack	veteran_new:tcg7_recon_backpack	item_tcg_loot_reward_series7_recon_backpack	0	0		0
tcg7_rocket_launcher	veteran_new:tcg7_rocket_launcher	item_tcg_loot_reward_series7_rocket_launcher	0	0		0
tcg7_lando_poster	veteran_new:tcg7_lando_poster	item_tcg_loot_reward_series7_lando_poster	0	0		0
tcg7_reb_graffiti	veteran_new:tcg7_rebel_graffiti_set	item_tcg_loot_reward_series7_rebel_graffiti_set	0	0		0
tcg7_imp_graffiti	veteran_new:tcg7_imperial_graffiti_set	item_tcg_loot_reward_series7_imperial_graffiti_set	0	0		0
facebook_reward_02	veteran_new:facebook_reward_02	item_facebook_reward_02	0	0		1
email_col_10	veteran_new:email_col_10	col_mail_opt_in_4_01	0	0		1
