objid	container	server_template_crc	cell_index	px	py	pz	qw	qx	qy	qz	scripts	objvars
i	i	h	i	f	f	f	f	f	f	f	s	p
1065334	0	object/static/structure/general/streetlamp_medium_green_style_02.iff	0	881.185	4	1750.92	-0.471328	0	0.881958	0		$|
1065335	0	object/static/structure/general/streetlamp_medium_red_style_02.iff	0	879.731	4	1773.13	-0.0956499	0	0.995415	0		$|
1065336	0	object/soundobject/soundobject_cantina_medium.iff	0	879.312	4	1761.49	1	0	0	0		$|
1065337	0	object/soundobject/soundobject_cantina_medium.iff	0	984.148	4.02321	1769.68	1	0	0	0		$|
1065340	0	object/static/structure/general/streetlamp_medium_red_style_02.iff	0	976.542	4.24217	1758.87	0.39934	0	0.916803	0		$|
1065341	0	object/static/structure/general/streetlamp_medium_green_style_02.iff	0	982.982	4	1781.96	0.813878	0	0.581035	0		$|
1065345	0	object/static/structure/general/streetlamp_small_red_style_01.iff	0	985.089	2.42976	1815.88	1	0	0	0		$|
1065351	0	object/static/structure/general/streetlamp_small_style_01.iff	0	650.421	25.3164	2013.09	1	0	0	0		$|
1065353	0	object/static/structure/general/streetlamp_small_style_01.iff	0	628.01	21.1358	2007.46	1	0	0	0		$|
1065355	0	object/static/structure/general/streetlamp_small_style_01.iff	0	605.3	24.8736	2012.93	1	0	0	0		$|
1065356	0	object/static/structure/general/streetlamp_small_style_01.iff	0	627.813	24.1039	1982.39	1	0	0	0		$|
1065363	0	object/static/structure/general/streetlamp_small_style_01.iff	0	465.726	12.4127	2018.25	1	0	0	0		$|
1065364	0	object/static/structure/general/streetlamp_small_style_01.iff	0	440.694	12.0549	2034.72	1	0	0	0		$|
1065365	0	object/static/structure/general/streetlamp_small_style_01.iff	0	787.935	26.8169	1952.13	1	0	0	0		$|
1065367	0	object/static/structure/general/streetlamp_large_style_02.iff	0	867.723	4.85064	1816.72	1	0	0	0		$|
1065368	0	object/static/structure/general/streetlamp_large_style_02.iff	0	854.004	4.03554	1795.91	1	0	0	0		$|
1065369	0	object/static/structure/general/streetlamp_large_style_02.iff	0	929.971	4	1818.16	1	0	0	0		$|
1065370	0	object/static/structure/general/streetlamp_large_style_02.iff	0	950.488	4.24483	1749.11	1	0	0	0		$|
1065371	0	object/static/structure/general/streetlamp_large_style_02.iff	0	910.972	4	1749.35	1	0	0	0		$|
1065372	0	object/static/structure/general/streetlamp_large_style_02.iff	0	873.663	4.26564	1732.4	1	0	0	0		$|
1065373	0	object/static/structure/general/streetlamp_large_style_02.iff	0	827.564	4.28727	1731.96	1	0	0	0		$|
1065374	0	object/static/structure/general/streetlamp_large_style_02.iff	0	806.143	4	1762.44	0.717911	0	-0.696135	0		$|
1065375	0	object/static/structure/general/streetlamp_large_style_02.iff	0	822.359	4	1761.71	-0.682221	0	0.731146	0		$|
1065376	0	object/static/structure/general/streetlamp_large_style_02.iff	0	856.392	4	1780.35	1	0	0	0		$|
1065377	0	object/static/structure/general/streetlamp_large_style_02.iff	0	855.312	4	1749.58	1	0	0	0		$|
1065381	0	object/static/structure/corellia/corl_fountain_statue_contemplate_s01.iff	0	854.01	4	1764.76	-0.00420366	0	0.999991	0		$|
1065391	0	object/tangible/furniture/all/frn_all_potted_plants_sml_s04.iff	0	851.224	4	1764.76	1	0	0	0		$|
1065392	0	object/tangible/furniture/all/frn_all_potted_plants_sml_s04.iff	0	856.84	4	1764.76	3.20013e-008	0	1	0		$|
1065395	0	object/tangible/furniture/all/frn_all_potted_plants_sml_s04.iff	0	839.482	4	1764.88	3.20013e-008	0	1	0		$|
1065396	0	object/tangible/furniture/all/frn_all_potted_plants_sml_s04.iff	0	833.866	4	1764.88	1	0	0	0		$|
1065397	0	object/static/structure/corellia/corl_fountain_statue_contemplate_s01.iff	0	836.696	4	1764.88	0.999991	0	0.00420394	0		$|
1110695	0	object/tangible/collection/flower_01.iff	0	981.405	4.37749	1816.3	1	0	0	0		$|
1221923	0	object/static/structure/general/streetlamp_large_style_02.iff	0	853.504	12.1738	1852.94	0.904752	0	0.42594	0		$|
1738364	0	object/static/structure/general/streetlamp_large_style_02.iff	0	852.913	17.9011	1884.97	1	0	0	0		$|
1738365	0	object/static/structure/general/streetlamp_large_style_02.iff	0	816.417	22.7468	1916.25	0.942755	0	0.333487	0		$|
1738366	0	object/static/structure/general/streetlamp_large_style_02.iff	0	814.017	24	1948.94	0.886995	0	0.461779	0		$|
2515364	0	object/static/structure/general/streetlamp_large_style_02.iff	0	498.761	17.2997	2012.77	1	0	0	0		$|
2515365	0	object/static/structure/general/streetlamp_large_style_02.iff	0	539.558	23.3479	1988.21	1	0	0	0		$|
2515366	0	object/static/structure/general/streetlamp_large_style_02.iff	0	569.883	23.4	1991.55	7.33659e-008	0	1	0		$|
2515367	0	object/static/structure/tatooine/debris_tatt_crate_1.iff	0	584.91	23.4	1990.93	1	0	0	0		$|
2515368	0	object/static/structure/tatooine/debris_tatt_crate_metal_1.iff	0	584.818	24.105	1990.96	0.930508	0	0.366273	0		$|
2775354	0	object/static/structure/general/streetlamp_small_style_01.iff	0	724.007	25.4735	1937.77	1	0	0	0		$|
2775356	0	object/static/structure/general/streetlamp_small_style_01.iff	0	718.202	25.5368	1937.79	0.83308	-0.298927	-0.43876	-0.155276		$|
2775359	0	object/static/structure/general/streetlamp_small_style_01.iff	0	729.738	25.6	1937.8	0.819912	-0.173626	-0.393554	0.377776		$|
2775360	0	object/static/item/item_music_microphone_s1.iff	0	724	25.6	1937.5	1	0	0	0		$|
2775361	0	object/static/item/item_music_microphone_s1.iff	0	721	25.6	1937	0.92388	0	-0.382683	0		$|
2775362	0	object/static/item/item_music_microphone_s1.iff	0	727.5	25.6	1937	0.92388	0	0.382683	0		$|
2775363	0	object/tangible/furniture/all/frn_all_couch_lg_s2.iff	0	716	24.3	1961	0	0	1	0		$|
2775364	0	object/tangible/furniture/all/frn_all_couch_lg_s2.iff	0	718	24.3	1964	0	0	1	0		$|
2775365	0	object/tangible/furniture/all/frn_all_couch_lg_s2.iff	0	718	24.3	1967	0	0	1	0		$|
2775366	0	object/tangible/furniture/all/frn_all_couch_lg_s2.iff	0	716	24.3	1955	0	0	1	0		$|
2775367	0	object/tangible/furniture/all/frn_all_couch_lg_s2.iff	0	716	24.3	1958	0	0	1	0		$|
2775368	0	object/tangible/furniture/all/frn_all_couch_lg_s2.iff	0	716	24.3	1949	0	0	1	0		$|
2775369	0	object/tangible/furniture/all/frn_all_couch_lg_s2.iff	0	720	24.3	1961	0	0	1	0		$|
2775370	0	object/tangible/furniture/all/frn_all_couch_lg_s2.iff	0	722	24.3	1964	0	0	1	0		$|
2775371	0	object/tangible/furniture/all/frn_all_couch_lg_s2.iff	0	722	24.3	1967	0	0	1	0		$|
2775372	0	object/tangible/furniture/all/frn_all_couch_lg_s2.iff	0	720	24.3	1955	0	0	1	0		$|
2775373	0	object/tangible/furniture/all/frn_all_couch_lg_s2.iff	0	720	24.3	1958	0	0	1	0		$|
2775374	0	object/tangible/furniture/all/frn_all_couch_lg_s2.iff	0	716	24.3	1952	0	0	1	0		$|
2775375	0	object/tangible/furniture/all/frn_all_couch_lg_s2.iff	0	716	24.3	1946	0	0	1	0		$|
2775376	0	object/tangible/furniture/all/frn_all_couch_lg_s2.iff	0	720	24.3	1952	0	0	1	0		$|
2775377	0	object/tangible/furniture/all/frn_all_couch_lg_s2.iff	0	724	24.3	1961	0	0	1	0		$|
2775378	0	object/tangible/furniture/all/frn_all_couch_lg_s2.iff	0	726	24.3	1967	0	0	1	0		$|
2775379	0	object/tangible/furniture/all/frn_all_couch_lg_s2.iff	0	724	24.3	1958	0	0	1	0		$|
2775380	0	object/tangible/furniture/all/frn_all_couch_lg_s2.iff	0	720	24.3	1949	0	0	1	0		$|
2775381	0	object/tangible/furniture/all/frn_all_couch_lg_s2.iff	0	726	24.3	1964	0	0	1	0		$|
2775382	0	object/tangible/furniture/all/frn_all_couch_lg_s2.iff	0	724	24.3	1955	0	0	1	0		$|
2775383	0	object/tangible/furniture/all/frn_all_couch_lg_s2.iff	0	724	24.3	1952	0	0	1	0		$|
2775384	0	object/tangible/furniture/all/frn_all_couch_lg_s2.iff	0	720	24.3	1946	0	0	1	0		$|
2775385	0	object/tangible/furniture/all/frn_all_couch_lg_s2.iff	0	724	24.3	1949	0	0	1	0		$|
2775386	0	object/tangible/furniture/all/frn_all_couch_lg_s2.iff	0	728	24.3	1961	0	0	1	0		$|
2775387	0	object/tangible/furniture/all/frn_all_couch_lg_s2.iff	0	730	24.3	1964	0	0	1	0		$|
2775388	0	object/tangible/furniture/all/frn_all_couch_lg_s2.iff	0	730	24.3	1967	0	0	1	0		$|
2775389	0	object/tangible/furniture/all/frn_all_couch_lg_s2.iff	0	728	24.3	1958	0	0	1	0		$|
2775390	0	object/tangible/furniture/all/frn_all_couch_lg_s2.iff	0	728	24.3	1955	0	0	1	0		$|
2775391	0	object/tangible/furniture/all/frn_all_couch_lg_s2.iff	0	724	24.3	1946	0	0	1	0		$|
2775392	0	object/tangible/furniture/all/frn_all_couch_lg_s2.iff	0	728	24.3	1949	0	0	1	0		$|
2775393	0	object/tangible/furniture/all/frn_all_couch_lg_s2.iff	0	728	24.3	1952	0	0	1	0		$|
2775394	0	object/tangible/furniture/all/frn_all_couch_lg_s2.iff	0	732	24.3	1961	0	0	1	0		$|
2775395	0	object/tangible/furniture/all/frn_all_couch_lg_s2.iff	0	732	24.3	1958	0	0	1	0		$|
2775396	0	object/tangible/furniture/all/frn_all_couch_lg_s2.iff	0	732	24.3	1952	0	0	1	0		$|
2775397	0	object/tangible/furniture/all/frn_all_couch_lg_s2.iff	0	732	24.3	1955	0	0	1	0		$|
2775398	0	object/tangible/furniture/all/frn_all_couch_lg_s2.iff	0	728	24.3	1946	0	0	1	0		$|
2775399	0	object/tangible/furniture/all/frn_all_couch_lg_s2.iff	0	732	24.3	1946	0	0	1	0		$|
2775400	0	object/tangible/furniture/all/frn_all_couch_lg_s2.iff	0	732	24.3	1949	0	0	1	0		$|
2775401	0	object/static/naboo/waterfall_naboo_crest_01.iff	0	722.163	29.6293	1921.8	6.14252e-006	0	1	0		$|
2775402	0	object/static/naboo/waterfall_naboo_crest_01.iff	0	724.638	29.6447	1921.45	1	0	0	0		$|
2775409	0	object/building/corellia/hotel_corellia.iff	0	628.229	23.4	2042.08	7.33659e-008	0	1	0		$|
2775410	2775409	object/cell/cell.iff	1	0	0	0	1	1.401298E-45	0	0		$|
2775411	2775409	object/cell/cell.iff	2	0	0	0	1	2.802597E-45	0	0		$|
4611173	2775411	object/tangible/collection/rare_pistol_d18_liquidator.iff	2	1.673712	1.741289	19.3884	-0.7038453	0	0	0		$|
2775412	2775409	object/cell/cell.iff	3	0	0	0	1	4.203895E-45	0	0		$|
2775413	2775409	object/cell/cell.iff	4	0	0	0	1	5.605194E-45	0	0		$|
1094995	2775413	object/tangible/gambling/slot/standard.iff	4	4.289219	1.302408	-22.07954	0.9999964	0	0.002698069	0		$|
1094996	2775413	object/tangible/gambling/slot/standard.iff	4	0.2165856	1.301507	-21.99583	0.9999964	0	0.002698069	0		$|
1094997	2775413	object/tangible/gambling/wheel/roulette.iff	4	-1.204494	1.111703	-16.12088	0.9999964	0	0.002698069	0		$|
1094998	2775413	object/tangible/gambling/wheel/roulette.iff	4	9.439103	1.112664	-16.23804	0.9999964	0	0.002698069	0		$|
1094999	2775413	object/tangible/gambling/slot/standard.iff	4	8.329693	1.302408	-22.22364	0.9999964	0	0.002698069	0		$|
8205556	2775413	object/soundobject/soundobject_city_crowd_medium.iff	4	0.426768	0.999994	0.014916	1	0	0	0		$|
2775414	2775409	object/cell/cell.iff	5	0	0	0	1	7.006492E-45	0	0		$|
8205566	2775414	object/soundobject/soundobject_cantina_small.iff	5	20.36572	1.283091	1.322225	1	0	0	0		$|
2775415	2775409	object/cell/cell.iff	6	0	0	0	1	8.407791E-45	0	0		$|
1094989	2775415	object/tangible/gambling/wheel/roulette.iff	6	-16.05042	1.001079	-0.1204855	0.9999734	0	-0.007301865	0		$|
1094990	2775415	object/tangible/gambling/wheel/roulette.iff	6	-16.10107	1.001094	4.248933	0.9999734	0	-0.007301865	0		$|
1094991	2775415	object/tangible/gambling/slot/standard.iff	6	-12.46415	1.000911	-0.09209721	-0.7019202	0	0.7122565	0		$|
1094992	2775415	object/tangible/gambling/slot/standard.iff	6	-12.26117	1.000758	-0.1099149	0.7122515	0	0.7019243	0		$|
1094993	2775415	object/tangible/gambling/slot/standard.iff	6	-12.18717	1.001018	4.197702	0.7032807	0	0.7109124	0		$|
1094994	2775415	object/tangible/gambling/slot/standard.iff	6	-12.38944	1.000865	4.220554	0.7109056	0	-0.7032878	0		$|
8205561	2775415	object/soundobject/soundobject_city_crowd_small.iff	6	-13.11147	1.000431	2.43613	1	0	0	0		$|
2775416	2775409	object/cell/cell.iff	7	0	0	0	1	9.809089E-45	0	0		$|
2775417	2775409	object/cell/cell.iff	8	0	0	0	1	1.121039E-44	0	0		$|
2775418	2775409	object/cell/cell.iff	9	0	0	0	1	1.261169E-44	0	0		$|
2775419	2775409	object/cell/cell.iff	10	0	0	0	1	1.401298E-44	0	0		$|
2775427	0	object/building/corellia/filler_historic_32x16_s01.iff	0	576.646	23.4	1975.42	1	0	0	0		$|
2775432	0	object/building/corellia/filler_historic_32x16_s02.iff	0	577.938	23.4	2035.63	1	0	0	0		$|
2775452	0	object/static/flora/potted_plant_flowers_orange.iff	0	601	23.4	2017	0.850236	0	-0.526401	0		$|
2775453	0	object/static/flora/potted_plant_flowers_orange.iff	0	611	23.4	2017	0.998149	0	-0.0608173	0		$|
2775454	0	object/static/flora/potted_plant_flowers_orange.iff	0	601	23.4	2009	0.946943	0	0.321402	0		$|
2775455	0	object/static/flora/potted_plant_flowers_orange.iff	0	611	23.4	2009	0.0606851	0	0.998157	0		$|
2775460	0	object/static/structure/corellia/corl_fountain_statue_contemplate_s01.iff	0	606	23.4	2013	0.707108	0	0.707106	0		$|
2775461	0	object/static/structure/corellia/corl_imprv_wall_4x16_s02.iff	0	651	20.6	2018	1	0	0	0		$|
2775462	0	object/static/structure/corellia/corl_imprv_wall_4x16_s02.iff	0	651	20.6	2008	1	0	0	0		$|
2775463	0	object/static/structure/corellia/corl_imprv_column_s01.iff	0	614	24	2018	1	0	0	0		$|
2775464	0	object/static/structure/corellia/corl_imprv_column_s01.iff	0	614	24	2008	1	0	0	0		$|
2775465	0	object/static/structure/corellia/corl_imprv_column_s01.iff	0	598	24	2018	1	0	0	0		$|
2775466	0	object/static/structure/corellia/corl_imprv_column_s01.iff	0	598	24	2008	1	0	0	0		$|
2775467	0	object/static/structure/corellia/corl_imprv_column_s02.iff	0	643	24	2018	1	0	0	0		$|
2775468	0	object/static/structure/corellia/corl_imprv_column_s02.iff	0	643	24	2008	1	0	0	0		$|
2775469	0	object/static/structure/corellia/corl_imprv_column_s02.iff	0	659	24	2018	1	0	0	0		$|
2775470	0	object/static/structure/corellia/corl_imprv_column_s02.iff	0	659	24	2008	1	0	0	0		$|
2775471	0	object/static/structure/corellia/corl_fountain_statue_heroic_s01.iff	0	651	23.4	2013	0.707107	0	0.707107	0		$|
2775474	0	object/static/flora/potted_plant_flowers_purple.iff	0	646	23.4	2013	0.12844	0	0.991717	0		$|
2775477	0	object/static/flora/potted_plant_flowers_purple.iff	0	656	23.4	2013	0.656531	0	0.754299	0		$|
3005458	0	object/static/structure/corellia/corl_imprv_wall_4x16_s01.iff	0	628	20.3386	1982	0.92388	0	0.382683	0		$|
3005459	0	object/static/structure/corellia/corl_imprv_wall_4x16_s01.iff	0	628	20.3386	1982	0.382685	0	0.923879	0		$|
3005461	0	object/static/structure/corellia/corl_imprv_column_s01.iff	0	622.343	23.4	1976.34	-0.382683	0	0.92388	0		$|
3005462	0	object/static/structure/corellia/corl_imprv_column_s01.iff	0	633.657	23.4	1976.34	0.382683	0	0.92388	0		$|
3005463	0	object/static/structure/corellia/corl_imprv_column_s01.iff	0	633.657	23.4	1987.66	-0.382683	0	0.92388	0		$|
3005464	0	object/static/structure/corellia/corl_imprv_column_s01.iff	0	622.343	23.4	1987.66	0.382683	0	0.92388	0		$|
3005465	0	object/static/structure/corellia/corl_fountain_circle_s01.iff	0	628	23.4	1982	0.382683	0	0.92388	0		$|
3005475	0	object/building/corellia/filler_slum_16x16_s01.iff	0	441	14.6	2018	2.85506e-006	0	1	0		$|
3005479	0	object/building/corellia/filler_slum_16x32_s02.iff	0	468	14.6	2041	1	0	0	0		$|
3005526	0	object/static/structure/corellia/corl_power_arial_prime.iff	0	452	14.6	2033	0.707108	0	-0.707106	0		$|
3005527	0	object/static/structure/corellia/corl_power_bubble_node.iff	0	460.698	14.6	2017.56	0.707107	0	0.707106	0		$|
3005528	0	object/static/structure/corellia/corl_power_connector.iff	0	466.749	14.6	2017.55	1	0	0	0		$|
3005530	0	object/static/structure/corellia/corl_power_transformer_s01.iff	0	460.701	14.6	2021.62	1	0	0	0		$|
3005538	0	object/static/installation/mockup_power_generator_wind_style_1.iff	0	472.845	14.6	2021	1	0	0	0		$|
3005539	0	object/static/installation/mockup_power_generator_wind_style_1.iff	0	466.854	14.6	2021	1	0	0	0		$|
3005545	0	object/static/structure/general/tankfarm_s01.iff	0	439.674	14.6	2027.12	1	0	0	0		$|
3005560	0	object/static/structure/tatooine/debris_tatt_crate_metal_1.iff	0	431.107	15.2957	2030.35	-0.551535	0	0.834152	0		$|
3005561	0	object/static/structure/tatooine/debris_tatt_drum_storage_1.iff	0	430.991	14.6	2031.3	0.997784	0	-0.066543	0		$|
3005562	0	object/static/structure/tatooine/debris_tatt_crate_metal_1.iff	0	431.184	14.9162	2029.69	-0.645632	0.378538	0.57772	-0.325742		$|
3005563	0	object/static/structure/tatooine/debris_tatt_crate_1.iff	0	431.096	14.6	2030.19	-0.019203	0	0.999816	0		$|
3005572	0	object/static/structure/corellia/corl_power_arial_prime.iff	0	452	14.6	2037	0.707113	0	-0.7071	0		$|
3005575	0	object/static/structure/corellia/corl_imprv_wall_4x16_s04.iff	0	470	14.6	2007	1	0	0	0		$|
3005576	0	object/static/structure/corellia/corl_imprv_wall_4x32_s04.iff	0	446	14.6	2007	1	0	0	0		$|
3005577	0	object/static/structure/corellia/corl_imprv_gate_sm_s02.iff	0	478	14.6	2010	0.707107	0	0.707107	0		$|
3005579	0	object/static/structure/corellia/corl_imprv_wall_4x16_s04.iff	0	478	14.6	2021	0.707107	0	0.707106	0		$|
3005580	0	object/static/structure/corellia/corl_imprv_wall_4x32_s04.iff	0	478	14.6	2045	0.707107	0	0.707106	0		$|
3005587	0	object/static/structure/corellia/corl_imprv_wall_4x32_s04.iff	0	430	14.6	2023	0.707108	0	0.707106	0		$|
3005588	0	object/static/structure/corellia/corl_imprv_column_s02.iff	0	430	14.6	2007	1	0	0	0		$|
3005589	0	object/static/structure/corellia/corl_imprv_column_s02.iff	0	430	12.6	2007	-3.20013e-008	1	0	0		$|
3005590	0	object/static/structure/corellia/corl_imprv_gate_sm_s02.iff	0	430	14.6	2042	0.707107	0	-0.707106	0		$|
3005680	0	object/static/structure/corellia/corl_imprv_column_s01.iff	0	602.223	23.4	1982.12	1	0	0	0		$|
3005683	0	object/tangible/terminal/terminal_bank.iff	0	603.715	23.4	1982.14	0.707108	0	0.707105	0		$|
3005685	0	object/tangible/terminal/terminal_bank.iff	0	600.806	23.4	1982.15	0.707108	0	-0.707105	0		$|
3005686	0	object/static/structure/corellia/corl_imprv_arch_lg_s01.iff	0	602.561	23.4	1988.31	1	0	0	0		$|
3005687	0	object/static/structure/corellia/corl_imprv_arch_lg_s01.iff	0	602.568	23.4	1975.04	1	0	0	0		$|
3005688	0	object/static/structure/corellia/corl_imprv_arch_lg_s01.iff	0	609.166	23.4	1981.72	0.707109	0	0.707104	0		$|
3005689	0	object/static/structure/corellia/corl_imprv_arch_lg_s01.iff	0	595.932	23.4	1981.68	0.707108	0	0.707105	0		$|
3005694	0	object/building/corellia/cantina_corellia.iff	0	931.567	4	1778.47	1	0	0	0		$|
3005695	3005694	object/cell/cell.iff	1	0	0	0	1	1.401298E-45	0	0		$|
3005696	3005694	object/cell/cell.iff	2	0	0	0	1	2.802597E-45	0	0		$|
8205602	3005696	object/soundobject/soundobject_cantina_small.iff	2	32.69089	0.105	-2.763342	1	0	0	0		$|
3005697	3005694	object/cell/cell.iff	3	0	0	0	1	4.203895E-45	0	0		$|
3005698	3005694	object/cell/cell.iff	4	0	0	0	1	5.605194E-45	0	0		$|
8205585	3005698	object/soundobject/soundobject_cantina_medium.iff	4	20.16479	-0.894996	-15.55042	1	0	0	0		$|
3005699	3005694	object/cell/cell.iff	5	0	0	0	1	7.006492E-45	0	0		$|
8205586	3005699	object/soundobject/soundobject_cantina_medium.iff	5	17.86834	-0.894992	18.48577	1	0	0	0		$|
3005700	3005694	object/cell/cell.iff	6	0	0	0	1	8.407791E-45	0	0		$|
8205579	3005700	object/soundobject/soundobject_city_crowd_medium.iff	6	5.451685	-0.894992	-15.48523	1	0	0	0		$|
3005701	3005694	object/cell/cell.iff	7	0	0	0	1	9.809089E-45	0	0		$|
8205587	3005701	object/soundobject/soundobject_cantina_medium.iff	7	6.201017	-0.894992	19.25056	1	0	0	0		$|
3005702	3005694	object/cell/cell.iff	8	0	0	0	1	1.121039E-44	0	0		$|
8205576	3005702	object/soundobject/soundobject_cantina_medium.iff	8	-9.431392	-0.894886	-16.951	1	0	0	0		$|
3005703	3005694	object/cell/cell.iff	9	0	0	0	1	1.261169E-44	0	0		$|
8205591	3005703	object/soundobject/soundobject_cantina_medium.iff	9	-7.68417	-0.895	19.50012	1	0	0	0		$|
3005704	3005694	object/cell/cell.iff	10	0	0	0	1	1.401298E-44	0	0		$|
3005705	3005694	object/cell/cell.iff	11	0	0	0	1	1.541428E-44	0	0		$|
3005706	3005694	object/cell/cell.iff	12	0	0	0	1	1.681558E-44	0	0		$|
8555506	3005706	object/tangible/furniture/all/frn_all_couch_lg_s2.iff	12	-16.44637	-0.894988	21.93339	0.707107	0	-0.7071065	0		$|
8555511	3005706	object/tangible/furniture/all/frn_all_potted_plants_sml_s05.iff	12	-16.0876	-0.89499	19.5332	1	0	0	0		$|
8555512	3005706	object/tangible/furniture/all/frn_all_potted_plants_sml_s05.iff	12	-16.19089	-0.894988	24.34546	1	0	0	0		$|
8555513	3005706	object/tangible/furniture/all/frn_all_potted_plants_sml_s05.iff	12	-31.50887	-0.894991	17.25998	1	0	0	0		$|
8555514	3005706	object/tangible/furniture/all/frn_all_couch_lg_s2.iff	12	-28.99785	-0.894991	22.75594	0.4175946	0	0.9086335	0		$|
8555516	3005706	object/tangible/furniture/modern/coffee_table_modern_style_02.iff	12	-27.71361	-0.894991	21.67118	0.4130462	0	0.9107101	0		$|
8555517	3005706	object/tangible/furniture/modern/end_table_large_modern_style_01.iff	12	-30.72539	-0.894991	21.5989	-0.3389458	0	0.9408059	0		$|
8555518	3005706	object/tangible/furniture/modern/end_table_large_modern_style_01.iff	12	-28.11441	-0.894991	24.7562	0.9376466	0	0.3475901	0		$|
8555522	3005706	object/tangible/furniture/all/frn_all_chair_meatal_wheeled_s1.iff	12	-31.22766	-0.894991	20.25486	0.7213821	0	0.6925373	0		$|
8555523	3005706	object/tangible/furniture/all/frn_all_chair_meatal_wheeled_s1.iff	12	-26.69619	-0.894991	25.19289	0.0940645	0	0.9955661	0		$|
3005707	3005694	object/cell/cell.iff	13	0	0	0	1	1.821688E-44	0	0		$|
8555486	3005707	object/tangible/furniture/modern/coffee_table_modern_style_01.iff	13	-27.69899	-0.519991	8.589944	1	0	0	0		$|
8555487	3005707	object/tangible/furniture/technical/bookcase_s01.iff	13	-31.20189	-0.519991	5.292674	1	0	0	0		$|
8555488	3005707	object/tangible/furniture/technical/bookcase_s01.iff	13	-25.13983	-0.519991	5.24722	1	0	0	0		$|
8555489	3005707	object/tangible/furniture/all/frn_all_chair_meatal_wheeled_s1.iff	13	-27.80809	-0.519991	6.877888	1	0	0	0		$|
8555490	3005707	object/tangible/furniture/all/frn_all_lamp_desk_s01.iff	13	-27.509	0.2779359	8.951068	1	0	0	0		$|
8555491	3005707	object/static/item/item_data_disk.iff	13	-26.30244	0.2705783	8.886573	1	0	0	0		$|
8555492	3005707	object/static/item/item_data_disk.iff	13	-26.49845	0.2705783	8.880476	1	0	0	0		$|
8555493	3005707	object/static/item/item_data_disk.iff	13	-26.4171	0.2705783	9.017584	1	0	0	0		$|
8555494	3005707	object/tangible/furniture/all/frn_all_chair_meatal_wheeled_s1.iff	13	-32.02203	-0.519991	14.35863	3.200127E-08	0	1	0		$|
8555495	3005707	object/tangible/furniture/all/frn_all_chair_meatal_wheeled_s1.iff	13	-29.85559	-0.519991	14.39917	3.200127E-08	0	1	0		$|
8555499	3005707	object/tangible/furniture/all/frn_all_rug_rectangle_large_style_05.iff	13	-27.7605	-0.5832365	10.23665	1	0	0	0		$|
8555500	3005707	object/tangible/furniture/all/frn_all_decorative_sm_s1.iff	13	-29.14414	0.2705783	8.94859	0.262678	0	0.9648836	0		$|
8555501	3005707	object/static/item/item_con_drink_flask.iff	13	-27.10399	0.2389556	8.761509	1	0	0	0		$|
8555502	3005707	object/static/item/item_con_pitcher_full.iff	13	-25.07566	0.9346565	5.23866	1	0	0	0		$|
8555503	3005707	object/static/item/item_document.iff	13	-28.47864	0.2705783	8.74949	0.8869949	0	-0.4617792	0		$|
8555504	3005707	object/static/item/item_datapad_s1.iff	13	-28.6948	0.2389556	8.486442	0.8869949	0	-0.4617792	0		$|
3005708	3005694	object/cell/cell.iff	14	0	0	0	1	1.961818E-44	0	0		$|
8205574	3005708	object/soundobject/soundobject_city_crowd_small.iff	14	-33.94149	0.10501	-18.14789	1	0	0	0		$|
3005709	3005694	object/cell/cell.iff	15	0	0	0	1	2.101948E-44	0	0		$|
8205572	3005709	object/soundobject/soundobject_city_crowd_small.iff	15	-45.44942	0.10286	-17.41671	1	0	0	0		$|
3055537	0	object/building/corellia/filler_historic_32x16_s01.iff	0	1003.48	4.30735	1783.51	0.999893	-0.00202547	-3.02328e-005	0.0144617		$|
3055542	0	object/building/corellia/filler_historic_32x16_s02.iff	0	951.729	4.06189	1826.72	-0.707098	0.00353551	0.707097	-0.00353552		$|
3055562	0	object/tangible/furniture/modern/sofa_chair_modern_style_01.iff	0	994.44	4.78626	1751.49	0.994897	0	0.100898	0		$|
3055563	0	object/tangible/furniture/modern/sofa_chair_modern_style_01.iff	0	995.243	4.64681	1755.41	-0.100899	0	0.994897	0		$|
3055564	0	object/tangible/furniture/modern/sofa_chair_modern_style_01.iff	0	996.801	4.75711	1753.05	0.774844	0	-0.632152	0		$|
3055565	0	object/tangible/furniture/modern/sofa_chair_modern_style_01.iff	0	992.882	4.6689	1753.85	0.632152	0	0.774844	0		$|
3055566	0	object/tangible/furniture/all/frn_all_table_s02.iff	0	994.841	4.71314	1753.45	0.632152	0	0.774844	0		$|
3055567	0	object/tangible/furniture/all/frn_all_table_s03.iff	0	988.333	4.43023	1758.29	0.854827	0.0192109	-0.518555	-0.00159918		$|
3055568	0	object/tangible/furniture/modern/sofa_chair_modern_style_01.iff	0	987.287	4.47487	1756.58	0.962082	0.0160438	0.271973	0.0130996		$|
3055569	0	object/tangible/furniture/modern/sofa_chair_modern_style_01.iff	0	986.628	4.364	1759.33	0.488319	0.000706682	0.872439	0.0198556		$|
3055570	0	object/tangible/furniture/modern/sofa_chair_modern_style_01.iff	0	990.038	4.49699	1757.24	0.872435	0.019765	-0.488327	-0.00182978		$|
3055571	0	object/tangible/furniture/modern/sofa_chair_modern_style_01.iff	0	989.379	4.39056	1759.99	-0.271938	-0.0132665	0.962125	0.0137279		$|
3055572	0	object/tangible/furniture/all/frn_all_table_s03.iff	0	974.173	4.41984	1752.87	0.596191	0.00786221	0.802452	0.0237884		$|
3055573	0	object/tangible/furniture/modern/sofa_chair_modern_style_01.iff	0	974.884	4.34503	1754.74	-0.180935	-0.0120634	0.983211	0.020307		$|
3055575	0	object/tangible/furniture/modern/sofa_chair_modern_style_01.iff	0	972.304	4.35563	1753.58	0.56776	0.00691487	0.822801	0.0244781		$|
3055587	0	object/tangible/furniture/tatooine/frn_tato_cafe_parasol.iff	0	983.086	5.039	1750.18	0.988815	-0.0938783	0.0992917	-0.0597748		$|
3055589	0	object/tangible/furniture/tatooine/frn_tato_cafe_parasol.iff	0	974.198	4.4207	1752.86	0.593463	0.0325485	0.791119	0.144475		$|
3055595	0	object/building/corellia/filler_historic_32x16_s02.iff	0	856.388	4	1790.19	0.721107	0	0.692823	0		$|
3055600	0	object/building/corellia/filler_historic_32x16_s01.iff	0	814.753	4	1765.25	1	0	0	0		$|
3055605	0	object/tangible/furniture/all/frn_all_table_s03.iff	0	1002.12	4.63961	1759.04	0.596167	0.00160936	0.802698	0.0160556		$|
3055606	0	object/tangible/furniture/modern/sofa_chair_modern_style_01.iff	0	1002.83	4.60198	1760.91	-0.180798	-0.0104122	0.983405	0.0108346		$|
3055607	0	object/tangible/furniture/modern/sofa_chair_modern_style_01.iff	0	1000.25	4.5884	1759.75	0.567715	0.00166346	0.823062	0.0163257		$|
3055608	0	object/tangible/furniture/tatooine/frn_tato_cafe_parasol.iff	0	1002.14	4.64029	1759.03	0.586197	0.0218243	0.803866	0.098468		$|
3055609	0	object/tangible/furniture/tatooine/frn_tato_cafe_parasol.iff	0	994.881	4.71423	1753.44	0.995905	0	0.090401	0		$|
3055628	0	object/building/corellia/filler_historic_32x16_s02.iff	0	861.705	4	1741.29	0.707106	0	0.707107	0		$|
3055676	0	object/static/structure/tatooine/jawa/tent_jawa_01_large.iff	0	879.921	4	1778.64	0.714142	0	-0.7	0		$|
3055677	0	object/tangible/furniture/modern/sofa_chair_modern_style_01.iff	0	883.134	4	1782.38	-0.276355	0	0.961056	0		$|
3055679	0	object/tangible/furniture/modern/sofa_chair_modern_style_01.iff	0	880.378	4	1781.75	0.484156	0	0.874982	0		$|
3055680	0	object/tangible/furniture/modern/sofa_chair_modern_style_01.iff	0	883.766	4	1779.63	0.874982	0	-0.484156	0		$|
3055681	0	object/tangible/furniture/all/frn_all_table_s02.iff	0	882.074	4	1780.69	0.874982	0	-0.484156	0		$|
3055682	0	object/tangible/furniture/all/frn_all_table_s03.iff	0	882.492	4	1776.29	-0.531524	0	0.847043	0		$|
3055683	0	object/tangible/furniture/modern/sofa_chair_modern_style_01.iff	0	883.235	4	1774.43	0.982004	0	-0.188858	0		$|
3055684	0	object/tangible/furniture/modern/sofa_chair_modern_style_01.iff	0	880.635	4	1775.54	0.827925	0	0.560839	0		$|
3055685	0	object/tangible/furniture/modern/sofa_chair_modern_style_01.iff	0	884.349	4	1777.03	-0.560839	0	0.827925	0		$|
3055687	0	object/tangible/furniture/modern/sofa_chair_modern_style_01.iff	0	877.983	4	1774.81	0.92766	0	-0.373426	0		$|
3055688	0	object/tangible/furniture/modern/sofa_chair_modern_style_01.iff	0	875.905	4	1774.88	0.920007	0	0.391903	0		$|
3055689	0	object/tangible/furniture/all/frn_all_table_s03.iff	0	877.015	4	1775.94	-0.531524	0	0.847043	0		$|
3055692	0	object/static/structure/corellia/corl_fountain_rectangle_s01.iff	0	989.927	4.40059	1808.46	0.931348	0	-0.36413	0		$|
3055693	0	object/static/structure/corellia/corl_fountain_rectangle_s01.iff	0	976.879	4.33919	1819.35	0.888055	0	-0.459737	0		$|
3055694	0	object/static/flora/potted_plant_flowers_orange.iff	0	984.391	4.28536	1810.91	0.770318	0	0.63766	0		$|
3055695	0	object/static/flora/potted_plant_flowers_purple.iff	0	986.063	4.38881	1812.37	0.770318	0	0.63766	0		$|
3055696	0	object/static/flora/potted_plant_flowers_orange.iff	0	987.858	4.50536	1813.96	0.770318	0	0.63766	0		$|
3055697	0	object/static/flora/potted_plant_flowers_orange.iff	0	980.118	4.26021	1814.39	-0.323341	0	0.946283	0		$|
3055699	0	object/static/flora/potted_plant_flowers_orange.iff	0	982.797	4.48266	1818.16	-0.323341	0	0.946283	0		$|
3055700	0	object/static/flora/potted_plant_flowers_orange.iff	0	992.047	4.31308	1802.99	0.999996	0	0.00290977	0		$|
3055701	0	object/static/flora/potted_plant_flowers_purple.iff	0	993.69	4.40653	1804.49	0.999996	0	0.00290977	0		$|
3055702	0	object/static/flora/potted_plant_flowers_orange.iff	0	995.453	4.51291	1806.12	0.999996	0	0.00290977	0		$|
3055703	0	object/static/flora/potted_plant_flowers_orange.iff	0	971.136	4.22685	1820.65	0.932583	0	0.360956	0		$|
3055704	0	object/static/flora/potted_plant_flowers_purple.iff	0	972.431	4.33351	1822.46	0.932583	0	0.360956	0		$|
3055705	0	object/static/flora/potted_plant_flowers_orange.iff	0	973.815	4.4532	1824.42	0.932583	0	0.360956	0		$|
3075766	0	object/tangible/furniture/modern/sofa_chair_modern_style_01.iff	0	985.158	4.7177	1750.12	-0.70678	-0.0214795	0.707014	0.0114754		$|
3075767	0	object/tangible/furniture/modern/sofa_chair_modern_style_01.iff	0	981.158	4.65999	1750.12	0.707007	0.0118634	0.706759	0.0221838		$|
3075768	0	object/tangible/furniture/modern/sofa_chair_modern_style_01.iff	0	983.158	4.59542	1752.12	-0.00017035	-0.00759619	0.99972	0.0224137		$|
3075769	0	object/tangible/furniture/modern/sofa_chair_modern_style_01.iff	0	983.158	4.78776	1748.12	0.999665	0.0249548	0.000169725	0.00679901		$|
3075770	0	object/tangible/furniture/all/frn_all_table_s02.iff	0	983.158	4.68916	1750.12	0.999703	0.0233002	0.0001678	0.00719951		$|
3375499	0	object/static/structure/corellia/corl_imprv_wall_4x32_s02.iff	0	702	22.66	1933	0.707108	0	0.707105	0		$|
3375500	0	object/static/structure/corellia/corl_imprv_column_s01.iff	0	702	24	1949	0.707108	0	0.707106	0		$|
3375501	0	object/static/structure/corellia/corl_imprv_column_s01.iff	0	702	24	1955	0.707113	0	0.7071	0		$|
3375503	0	object/static/structure/corellia/corl_imprv_wall_4x16_s02.iff	0	704.838	22.6961	1962.59	0.83072	0	-0.556691	0		$|
3375504	0	object/static/structure/corellia/corl_imprv_column_s01.iff	0	708.232	24	1970.25	0.92388	0	-0.382683	0		$|
3375508	0	object/static/structure/corellia/corl_imprv_column_s01.iff	0	744.381	24.3207	1949	0.724564	0	0.689208	0		$|
3375509	0	object/static/structure/corellia/corl_imprv_column_s01.iff	0	744.38	24.4737	1955	0.707108	0	0.707106	0		$|
3375510	0	object/static/structure/corellia/corl_imprv_wall_4x32_s02.iff	0	745.172	23.022	1933.22	0.724563	0	0.689209	0		$|
3375511	0	object/static/structure/corellia/corl_imprv_wall_4x16_s02.iff	0	723.449	22.7893	1971.26	1	0	0	0		$|
3375513	0	object/static/structure/corellia/corl_imprv_wall_4x16_s02.iff	0	741.136	23.5588	1963	-0.554408	0.0143764	0.831977	-0.0154575		$|
3375514	0	object/static/structure/corellia/corl_imprv_column_s01.iff	0	738.118	25.1551	1970.82	0.92388	0	0.382683	0		$|
3375515	0	object/static/structure/corellia/corl_imprv_column_s01.iff	0	731.76	24.8407	1971.29	1	0	0	0		$|
3375516	0	object/static/structure/corellia/corl_imprv_column_s01.iff	0	714.905	24	1971.3	1	0	0	0		$|
3375520	0	object/static/structure/corellia/corl_imprv_bridge_insert_s01.iff	0	788	26.664	1952	0.70711	0	0.707104	0		$|
3375522	0	object/static/structure/corellia/corl_imprv_bridge_insert_s01.iff	0	788	26.6922	1952	1	0	0	0		$|
3375530	0	object/static/structure/corellia/corl_power_arial_prime.iff	0	787.974	26.8218	1951.87	1	0	0	0		$|
3375554	0	object/static/structure/corellia/corl_imprv_column_s02.iff	0	786	23	1952	0.707108	0	0.707106	0		$|
3375555	0	object/static/structure/corellia/corl_imprv_column_s02.iff	0	790	23	1952	0.707107	0	0.707106	0		$|
3375556	0	object/static/structure/corellia/corl_imprv_column_s02.iff	0	788	23	1954	1	0	0	0		$|
3375557	0	object/static/structure/corellia/corl_imprv_column_s02.iff	0	788	23	1950	1	0	0	0		$|
3375566	0	object/static/structure/corellia/corl_imprv_column_s01.iff	0	783	23.8139	1957	0.382684	0	0.923879	0		$|
3375567	0	object/static/structure/corellia/corl_imprv_column_s01.iff	0	783	23.8896	1947	0.92388	0	0.382683	0		$|
3375568	0	object/static/structure/corellia/corl_imprv_column_s01.iff	0	793	24	1947	0.382684	0	0.923879	0		$|
3375569	0	object/static/structure/corellia/corl_imprv_column_s01.iff	0	793	24	1957	0.92388	0	0.382683	0		$|
4705376	0	object/tangible/terminal/terminal_bazaar.iff	0	602.253	23.4	1980.85	3.20013e-008	0	1	0		$|
4705377	0	object/tangible/terminal/terminal_bazaar.iff	0	602.29	23.4	1983.31	1	0	0	0		$|
5075490	0	object/static/structure/corellia/corl_imprv_wall_4x16_s02.iff	0	606.043	20.9936	2007.83	1	0	0	0		$|
5075491	0	object/static/structure/corellia/corl_imprv_wall_4x16_s02.iff	0	606.183	20.9512	2018.17	1	0	0	0		$|
5475493	0	object/static/item/item_tool_instrument_calibrator.iff	0	478.822	14.6	2018.41	0.862606	0	0.505877	0		$|
5475494	0	object/static/item/item_tool_radio.iff	0	478.921	16.1495	2017.8	0.900447	0	0.434966	0		$|
5475495	0	object/static/item/item_tool_droid_toolkit.iff	0	479.022	14.6	2016.65	1	0	0	0		$|
5475496	0	object/tangible/furniture/all/frn_all_toolchest_lg_s01.iff	0	478.792	14.5051	2017.49	0.707107	0	0.707107	0		$|
5475497	0	object/static/structure/general/trash_pile_s01.iff	0	479.464	14.6	2022.55	1	0	0	0		$|
5475499	0	object/static/item/item_kitchen_pot_style_01.iff	0	479.562	14.6	2017.45	1	0	0	0		$|
5475500	0	object/static/item/item_kitchen_pot_style_02.iff	0	479.822	14.6	2017.74	1	0	0	0		$|
5475501	0	object/static/item/item_kitchen_pot_style_03.iff	0	480.026	14.6	2017.27	1	0	0	0		$|
5475502	0	object/static/item/item_container_organic_food.iff	0	481.844	14.7265	2021.95	0.703845	0	0	0.710353		$|
5475503	0	object/static/item/item_container_organic_structure.iff	0	481.816	14.6	2021.41	1	0	0	0		$|
5475504	0	object/static/item/item_container_energy_liquid.iff	0	481.132	14.6	2021.47	0.965092	0.261909	0	0		$|
5535378	0	object/static/structure/general/streetlamp_large_style_02.iff	0	602.241	24.9149	1982.12	0.707107	0	0.707106	0		$|
6025425	0	object/static/structure/general/streetlamp_large_style_02.iff	0	940.136	4.71173	1839.59	1	0	0	0		$|
7125422	0	object/static/structure/corellia/corl_imprv_wall_4x16_s01.iff	0	709.243	24.9885	1912.71	0.970137	0	0.242556	0		$|
7125423	0	object/static/structure/corellia/corl_imprv_wall_4x16_s01.iff	0	709.243	29.9273	1912.71	0.970137	0	0.242556	0		$|
7125424	0	object/static/structure/corellia/corl_imprv_column_s01.iff	0	701.985	27.8648	1916.39	-3.75295e-008	0.707107	-2.26283e-008	-0.707107		$|
7125425	0	object/static/structure/corellia/corl_imprv_wall_4x16_s01.iff	0	724.134	25.0085	1908.98	1	0	0	0		$|
7125426	0	object/static/structure/corellia/corl_imprv_wall_4x16_s01.iff	0	724.134	29.9473	1908.98	1	0	0	0		$|
7125427	0	object/static/structure/corellia/corl_imprv_wall_4x16_s01.iff	0	738.855	29.9396	1912.87	0.966979	0	-0.254857	0		$|
7125428	0	object/static/structure/corellia/corl_imprv_wall_4x16_s01.iff	0	738.855	25.0008	1912.87	0.966979	0	-0.254857	0		$|
7125429	0	object/static/structure/corellia/corl_imprv_column_s01.iff	0	746.012	27.8648	1916.65	-2.33689e-008	0.724565	-3.66158e-008	-0.689206		$|
7125432	0	object/static/structure/corellia/corl_imprv_column_s01.iff	0	746.01	29.7713	1916.65	0.724568	0	0.689203	0		$|
7125433	0	object/static/structure/corellia/corl_imprv_column_s01.iff	0	701.98	29.7713	1916.39	0.707107	0	0.707107	0		$|
7125441	0	object/static/structure/corellia/corl_fountain_rectangle_s01.iff	0	723.343	27.6896	1921.99	6.63422e-007	0	1	0		$|
7125442	0	object/static/structure/corellia/corl_stair_small_s01.iff	0	723.345	24.3336	1927.66	1	0	0	0		$|
7125443	0	object/static/structure/corellia/corl_stair_small_s01.iff	0	723.34	24.3336	1915.93	-3.20013e-008	0	1	0		$|
7125449	0	object/static/structure/corellia/corl_imprv_column_s02.iff	0	725.512	23.0829	1919.27	0.70711	0	0.707103	0		$|
7125450	0	object/static/structure/corellia/corl_imprv_column_s02.iff	0	725.512	23.0829	1920.27	0.70711	0	0.707104	0		$|
7125451	0	object/static/structure/corellia/corl_imprv_column_s02.iff	0	725.512	23.0829	1921.27	0.70711	0	0.707104	0		$|
7125452	0	object/static/structure/corellia/corl_imprv_column_s02.iff	0	725.512	23.0834	1922.27	0.70711	0	0.707103	0		$|
7125453	0	object/static/structure/corellia/corl_imprv_column_s02.iff	0	725.512	23.0829	1923.27	0.707108	0	0.707105	0		$|
7125454	0	object/static/structure/corellia/corl_imprv_column_s02.iff	0	725.512	23.0829	1924.27	0.707108	0	0.707105	0		$|
7125455	0	object/static/structure/corellia/corl_imprv_column_s02.iff	0	721.158	23.1041	1919.3	0.707125	0	0.707088	0		$|
7125456	0	object/static/structure/corellia/corl_imprv_column_s02.iff	0	721.158	23.1041	1920.3	0.707107	0	0.707107	0		$|
7125457	0	object/static/structure/corellia/corl_imprv_column_s02.iff	0	721.158	23.1041	1921.3	0.707107	0	0.707107	0		$|
7125458	0	object/static/structure/corellia/corl_imprv_column_s02.iff	0	721.158	23.1041	1922.3	0.707107	0	0.707107	0		$|
7125459	0	object/static/structure/corellia/corl_imprv_column_s02.iff	0	721.158	23.1041	1923.3	0.707107	0	0.707107	0		$|
7125460	0	object/static/structure/corellia/corl_imprv_column_s02.iff	0	721.158	23.1041	1924.3	0.707107	0	0.707107	0		$|
7615442	0	object/building/corellia/ply_corl_house_s_s01_fp2.iff	0	831.208	4.18497	1790.86	0.0199986	0	0.9998	0		$|
7615443	7615442	object/cell/cell.iff	1	0	0	0	1	1.401298E-45	0	0		$|
7615444	7615442	object/cell/cell.iff	2	0	0	0	1	2.802597E-45	0	0		$|
7615468	7615444	object/tangible/furniture/modern/end_table_small_modern_style_01.iff	2	-7.064409	0.74	-7.297498	0.9305076	0	-0.3662726	0		$|
7615469	7615444	object/tangible/furniture/all/frn_all_decorative_sm_s1.iff	2	-7.05045	1.467324	-7.303837	0.9650925	0	0.2619093	0		$|
7615445	7615442	object/cell/cell.iff	3	0	0	0	1	4.203895E-45	0	0		$|
7615472	7615445	object/static/structure/general/droid_lemedical_powerdown.iff	3	1.673623	0.74	5.926661	0.3762972	0	0.926499	0		$|
7615474	7615445	object/tangible/furniture/all/frn_all_bed_sm_s2.iff	3	2.723172	0.74	4.132589	3.200127E-08	0	1	0		$|
7615475	7615445	object/tangible/furniture/all/frn_all_bed_sm_s2.iff	3	5.468972	0.74	4.118502	-0.0049996	0	0.9999875	0		$|
7615479	7615445	object/tangible/furniture/all/frn_all_data_terminal_wall_s2.iff	3	2.687145	1.056228	6.061078	3.1219E-08	0	1	0		$|
7615480	7615445	object/tangible/furniture/all/frn_all_data_terminal_wall_s2.iff	3	5.344351	1.024605	6.054512	0.01999904	0	0.9998	0		$|
7615481	7615445	object/tangible/furniture/modern/bar_counter_s1.iff	3	2.131254	0.74	1.472809	1	0	0	0		$|
7615482	7615445	object/static/item/item_medic_bacta_tank.iff	3	1.155986	0.74	4.108055	0.7071072	0	0.7071063	0		$|
7615484	7615445	object/static/item/item_medic_bacta_tank.iff	3	1.149818	0.74	3.462853	0.7211061	0	0.6928248	0		$|
7615485	7615445	object/static/item/item_diagnostic_screen.iff	3	3.133512	1.87842	1.259141	0.9267984	0	-0.3755592	0		$|
7615486	7615445	object/static/item/item_glass_empty.iff	3	1.758658	1.87842	1.2477	1	0	0	0		$|
7615487	7615445	object/static/item/item_glass_empty.iff	3	1.875244	1.87842	1.302282	1	0	0	0		$|
7615488	7615445	object/static/item/item_glass_empty.iff	3	1.889023	1.87842	1.149571	1	0	0	0		$|
7615493	7615445	object/tangible/furniture/all/frn_all_potted_plants_sml_s05.iff	3	1.39406	1.87842	1.390289	1	0	0	0		$|
7615495	7615445	object/tangible/furniture/all/frn_all_lamp_desk_s01.iff	3	2.331218	1.910042	1.131905	1	0	0	0		$|
7615500	7615445	object/tangible/furniture/technical/chair_s01.iff	3	6.373354	0.74	2.163912	0.707107	0	-0.7071065	0		$|
7615501	7615445	object/tangible/furniture/technical/chair_s01.iff	3	6.400008	0.74	3.08818	0.707107	0	-0.7071065	0		$|
7615502	7615445	object/static/item/item_jar_berries.iff	3	1.594072	1.87842	1.165351	1	0	0	0		$|
7615446	7615442	object/cell/cell.iff	4	0	0	0	1	5.605194E-45	0	0		$|
7615504	7615446	object/tangible/furniture/all/frn_all_professor_desk.iff	4	-1.939826	0.74	4.555484	0.9130889	0	-0.4077604	0		$|
7615505	7615446	object/tangible/furniture/all/frn_all_chair_meatal_wheeled_s1.iff	4	-3.343217	0.74	5.604081	0.4077605	0	0.913089	0		$|
7615514	7615446	object/tangible/furniture/modern/love_seat_modern_style_01.iff	4	0.09651461	0.74	2.430478	0.7071066	0	0.7071068	0		$|
7615516	7615446	object/tangible/furniture/all/frn_all_couch_lg_s2.iff	4	-1.637325	0.74	-3.483259	1	0	0	0		$|
7615517	7615446	object/tangible/furniture/all/frn_all_couch_lg_s2.iff	4	-3.227617	0.74	-1.872771	0.7071066	0	0.7071068	0		$|
7615519	7615446	object/tangible/furniture/all/frn_all_potted_plants_sml_s05.iff	4	-3.401468	0.74	-3.96545	1	0	0	0		$|
7615520	7615446	object/static/item/item_painting_corellia_style_02.iff	4	-4.18057	1.562192	-1.44563	3.200127E-08	0	1	0		$|
7615521	0	object/static/structure/general/streetlamp_large_style_02.iff	4	839.803	4	1786.73	1	0	0	0		$|
8465531	0	object/building/corellia/salon_corellia.iff	0	987.564	5.13163	1823.84	-0.354799	0	0.934943	0		$|
8465532	8465531	object/cell/cell.iff	1	0	0	0	1	1.401298E-45	0	0		$|
4612042	8465532	object/tangible/collection/rare_pistol_perfectly_calibrated.iff	1	-10.16347	1.2607	-4.315888	0.2474911	0	0.6524003	0.6729511		$|
8675792	0	object/static/structure/corellia/corl_imprv_flagpole_s01.iff	0	628.274	50.0887	2042.8	1	0	0	0		$|
9665503	0	object/tangible/furniture/all/frn_bench_generic.iff	0	608.996	23.4	2009.05	1	0	0	0		$|
9665504	0	object/tangible/furniture/all/frn_bench_generic.iff	0	606.007	23.4	2009.06	1	0	0	0		$|
9665505	0	object/tangible/furniture/all/frn_bench_generic.iff	0	602.992	23.4	2009.06	1	0	0	0		$|
9665506	0	object/tangible/furniture/all/frn_bench_generic.iff	0	602.996	23.4	2017	-3.20013e-008	0	1	0		$|
9665507	0	object/tangible/furniture/all/frn_bench_generic.iff	0	605.996	23.4	2016.97	-3.20013e-008	0	1	0		$|
9665508	0	object/tangible/furniture/all/frn_bench_generic.iff	0	608.983	23.4	2016.94	-3.20013e-008	0	1	0		$|
9665509	0	object/tangible/furniture/all/frn_bench_generic.iff	0	784.088	23.8847	1951.93	0.707107	0	-0.707107	0		$|
9665510	0	object/tangible/furniture/all/frn_bench_generic.iff	0	787.989	23.9998	1947.95	-3.20013e-008	0	1	0		$|
9665511	0	object/tangible/furniture/all/frn_bench_generic.iff	0	792.003	24	1951.97	0.707107	0	0.707107	0		$|
9665512	0	object/tangible/furniture/all/frn_bench_generic.iff	0	787.997	23.9589	1955.94	1	0	0	0		$|
9665513	0	object/tangible/furniture/all/frn_bench_generic.iff	0	646.019	23.4	2010.96	0.707107	0	-0.707107	0		$|
9665514	0	object/tangible/furniture/all/frn_bench_generic.iff	0	646.007	23.4	2014.94	0.707107	0	-0.707106	0		$|
9665515	0	object/tangible/furniture/all/frn_bench_generic.iff	0	656.005	23.4	2014.96	0.707107	0	0.707107	0		$|
9665516	0	object/tangible/furniture/all/frn_bench_generic.iff	0	656.023	23.4	2010.99	0.707107	0	0.707106	0		$|
9665517	0	object/tangible/furniture/all/frn_bench_generic.iff	0	986.854	4.20181	1805.64	-0.396498	0	0.918036	0		$|
9665518	0	object/tangible/furniture/all/frn_bench_generic.iff	0	974.417	4.13836	1815.93	-0.302867	0	0.953033	0		$|
9665519	0	object/tangible/furniture/all/frn_bench_generic.iff	0	851.307	4	1767.08	0.707107	0	-0.707106	0		$|
9665520	0	object/tangible/furniture/all/frn_bench_generic.iff	0	851.228	4	1762.37	0.707107	0	-0.707106	0		$|
9665521	0	object/tangible/furniture/all/frn_bench_generic.iff	0	856.804	4	1762.4	0.707107	0	0.707106	0		$|
9665522	0	object/tangible/furniture/all/frn_bench_generic.iff	0	856.849	4	1767	0.707107	0	0.707106	0		$|
9665523	0	object/tangible/furniture/all/frn_bench_generic.iff	0	839.468	4	1762.59	0.707107	0	0.707106	0		$|
9665524	0	object/tangible/furniture/all/frn_bench_generic.iff	0	839.483	4	1767.25	0.707107	0	0.707106	0		$|
9665525	0	object/tangible/furniture/all/frn_bench_generic.iff	0	833.931	4	1767.16	0.707107	0	-0.707106	0		$|
9665526	0	object/tangible/furniture/all/frn_bench_generic.iff	0	833.85	4	1762.62	0.707107	0	-0.707107	0		$|
2775437	0	object/building/corellia/filler_slum_24x16_s01.iff	0	578.628	23.4	2006.71	6.63422e-007	0	1	0		$|
2775439	0	object/building/corellia/filler_slum_24x16_s02.iff	0	599.316	23.4	1957.28	0.707107	0	0.707107	0		$|
3055592	0	object/building/corellia/filler_slum_24x16_s02.iff	0	832.796	4	1741.75	0.707107	0	0.707107	0		$|
3055690	0	object/building/corellia/filler_slum_24x16_s01.iff	0	920.984	3.95414	1826.53	0.707108	0	-0.707106	0		$|
