spawns	name	required_config	room	loc_x	loc_y	loc_z	yaw	script	mood	animation_mood	respawn_time	spawn_objvar	special_room	special_room_script	room_objvar	room_objvar_name	room_objvar_value
s	s	s[none]	s	f	f	f	f	s	s	s	i	s	s	s	s	s	s
blood_razor_destroyer			mainhall	0.034820311	0.125265002	-4.997152328		theme_park.dungeon.generic_death			334	int:ai.defaultCalmBehavior=2					
blood_razor_destroyer			mainhall	0.034820311	0.125265002	-4.997152328		theme_park.dungeon.generic_death			334	int:ai.defaultCalmBehavior=2					
thug			room1	4.298575878	0.125266001	2.821779966		theme_park.dungeon.generic_death			100	int:ai.defaultCalmBehavior=1					
