spawns	name	required_config	room	loc_x	loc_y	loc_z	yaw	script	mood	animation_mood	respawn_time	spawn_objvar	special_room	special_room_script	room_objvar	room_objvar_name	room_objvar_value
s	s	s[none]	s	f	f	f	f	s	s	s	i	s	s	s	s	s	s
corellia_jonset			alcove5	-6.8	-0.9	22.5	179				9						
