setNames	template_1	template_2	template_3	template_4	reward_item
s	s	s	s	s	s
set5_atat	object/tangible/tcg/series5/combine_object_at_at_blueprint.iff	object/tangible/tcg/series5/combine_object_atat_statuette.iff	object/tangible/tcg/series5/combine_object_itv_atat_head.iff	object/tangible/tcg/series5/combine_object_vader_statuette.iff	item_tcg_loot_reward_series5_player_house_atat
set5_scurrier	object/tangible/tcg/series5/combine_object_house_pet_scurrier_leftover_01.iff	object/tangible/tcg/series5/combine_object_house_pet_scurrier_leftover_02.iff	object/tangible/tcg/series5/combine_object_house_pet_scurrier_leftover_03.iff	object/tangible/tcg/series5/combine_object_house_pet_scurrier_leftover_04.iff	item_tcg_scurrier_final_palm_schematic
set6_hk47	object/tangible/tcg/series6/combine_object_hk47_statuette.iff	object/tangible/tcg/series6/combine_object_hk47_mustafar_diorama.iff	object/tangible/tcg/series6/combine_object_battle_droid_statuette.iff	object/tangible/tcg/series6/combine_object_hk_droids_poster.iff	item_tcg_loot_reward_series6_buildreward_hk47_jet_pack
set7_gunship	object/tangible/tcg/series7/combine_object_tie_canopy.iff	object/tangible/tcg/series7/combine_object_xwing_wing.iff	object/tangible/tcg/series7/combine_object_gunship_blueprint.iff	object/tangible/tcg/series7/combine_object_broken_ball_turret.iff	item_tcg_loot_reward_series7_buildreward_republic_gunship
